<?xml version="1.0" encoding="UTF-8" standalone="no"?>
<!DOCTYPE svg PUBLIC "-//W3C//DTD SVG 1.1//EN" "http://www.w3.org/Graphics/SVG/1.1/DTD/svg11.dtd">
<svg version="1.1" id="Layer_1" xmlns="http://www.w3.org/2000/svg" xmlns:xlink="http://www.w3.org/1999/xlink" x="0px" y="0px" width="24px" height="24px" viewBox="0 0 24 24" enable-background="new 0 0 24 24" xml:space="preserve">  <image id="image0" width="24" height="24" x="0" y="0"
    xlink:href="data:image/png;base64,iVBORw0KGgoAAAANSUhEUgAAABgAAAAYCAAAAADFHGIkAAAABGdBTUEAALGPC/xhBQAAACBjSFJN
AAB6JgAAgIQAAPoAAACA6AAAdTAAAOpgAAA6mAAAF3CculE8AAAAAmJLR0QA/4ePzL8AAAAJcEhZ
cwAAAGAAAABgAPBrQs8AAAAHdElNRQfjAxwCOw+u4ne8AAAAlklEQVQoz22SuRLCMAxE1+n4TcAM
XYCBOq1moOf6UCpHFHYUHVYl7fPIXktgEyW/WwarbzE8O6DsAaRHAHMGAICYmQdI8PFbk18tJcZ2
YHKtTkZfwdnqAi5OX8DV6w3cgl7BFHXtA9jowrQi12q9nDyQ55IHYpA8kC+hMI/REAXmgybKR3rl
4EOPFvf+MqTeMjCX3adlfw4ncNdewXnUAAAAJXRFWHRkYXRlOmNyZWF0ZQAyMDE5LTAzLTI4VDA5
OjU5OjE1LTA3OjAwD6Dt0wAAACV0RVh0ZGF0ZTptb2RpZnkAMjAxOS0wMy0yOFQwOTo1OToxNS0w
NzowMH79VW8AAAAASUVORK5CYII=" />
</svg>
