<svg width="50" height="53" viewBox="0 0 50 53" fill="none" xmlns="http://www.w3.org/2000/svg">
<path d="M29.2744 12.5546C30.3879 15.2845 26.9396 19.056 23.0244 23.3305C19.4325 27.2816 13.1106 34.2141 9.23131 32.5977C5.02872 30.8376 3.05315 18.7328 9.23131 12.5546C15.4454 6.34052 27.6221 8.42385 29.2744 12.5546Z" fill="url(#paint0_linear)"/>
<path d="M19.9713 42.9426C14.8708 42.9426 9.73428 41.003 5.85497 37.0877C-1.93957 29.2932 -1.93957 16.6136 5.85497 8.85496C13.6495 1.06042 26.3291 1.06042 34.0877 8.85496C41.8823 16.6495 41.8823 29.3291 34.0877 37.0877C30.2084 40.967 25.0719 42.9426 19.9713 42.9426ZM19.9713 9.46559C16.5231 9.46559 13.0389 10.7946 10.4168 13.4167C5.13658 18.6969 5.13658 27.2458 10.4168 32.5259C15.6969 37.8061 24.2458 37.8061 29.5259 32.5259C34.8061 27.2458 34.8061 18.6969 29.5259 13.4167C26.8679 10.7946 23.4196 9.46559 19.9713 9.46559Z" fill="#D3A950"/>
<path d="M47.0905 53C46.3362 53 45.6178 52.7126 45.0431 52.1379L29.7414 36.8721C28.592 35.7227 28.592 33.8908 29.7414 32.7773C30.8908 31.6279 32.7227 31.6279 33.8362 32.7773L49.102 48.0431C50.2514 49.1925 50.2514 51.0244 49.102 52.1379C48.5632 52.7126 47.8448 53 47.0905 53Z" fill="#D3A950"/>
<path d="M32.0182 23.835C31.845 23.575 31.7583 23.2284 31.7583 22.9685C31.585 21.2356 31.0651 19.6759 30.2853 18.2029C29.9387 18.3762 29.6788 18.5495 29.3322 18.6362L26.1263 19.5893C24.1334 20.1958 22.0539 20.5424 19.8877 20.5424C17.7215 20.5424 15.642 20.1958 13.6491 19.5893L10.4432 18.6362C10.1833 18.5495 9.92334 18.4629 9.6634 18.2896H9.57675C8.62364 19.9359 8.10376 21.9287 8.10376 24.0082C8.10376 27.9073 9.92334 31.7198 12.8693 34.1459C13.2159 34.4925 13.4759 34.8391 13.4759 35.2723V42.0307C13.4759 42.5506 13.9091 42.9839 14.429 43.0705L24.5666 43.937C25.1732 44.0236 25.693 43.5037 25.693 42.8972V38.1316C25.693 37.7851 25.953 37.5251 26.2996 37.5251H29.8521C30.9785 37.5251 31.845 36.6587 31.845 35.5322V30.7667C31.845 30.5067 32.0182 30.3335 32.1915 30.3335H33.9245C34.9642 30.3335 35.5708 29.207 35.0509 28.3406L32.0182 23.835Z" fill="#F9F9F9"/>
<path d="M10.6538 17.9685C10.3932 17.8815 10.221 17.82 10.0517 17.7071L9.87534 17.5896H9.6634H9.57675H9.17316L8.97095 17.9388C7.95161 19.6995 7.40376 21.8149 7.40376 24.0082C7.40376 28.1046 9.30574 32.1037 12.397 34.6637C12.7085 34.9797 12.7759 35.1442 12.7759 35.2723V42.0307C12.7759 42.9548 13.5215 43.6289 14.3139 43.761L14.3415 43.7656L14.3694 43.768L24.4897 44.633C25.5679 44.773 26.393 43.8594 26.393 42.8972V38.2251H29.8521C31.3651 38.2251 32.545 37.0453 32.545 35.5322V31.0335H33.9245C35.5236 31.0335 36.4431 29.3003 35.6511 27.9804L35.6418 27.9648L35.6316 27.9497L32.6007 23.4467C32.6004 23.4463 32.6002 23.4459 32.6 23.4456C32.512 23.313 32.4583 23.1056 32.4583 22.9685V22.9336L32.4548 22.8988C32.2714 21.0648 31.7207 19.4182 30.904 17.8754L30.584 17.271L29.9723 17.5768C29.8331 17.6464 29.7255 17.7039 29.6356 17.752C29.4426 17.8553 29.3311 17.9149 29.1624 17.9571L29.1475 17.9608L29.1327 17.9652L25.9268 18.9183L25.9268 18.9183L25.9225 18.9196C23.9889 19.5081 21.9781 19.8424 19.8877 19.8424C17.7973 19.8424 15.7865 19.5081 13.853 18.9196L13.853 18.9196L13.8486 18.9183L10.6538 17.9685Z" stroke="white" stroke-opacity="0.27" stroke-width="1.4"/>
<path d="M34.8776 6.0724L21.9672 2.25994C21.274 2.08665 20.6675 2 19.9743 2C19.2812 2 18.6746 2.08665 17.9815 2.25994L5.07111 6.0724C4.20465 6.33234 4.20465 7.63204 5.07111 7.89198L5.59099 8.06527V12.9175H5.4177C5.15776 12.9175 4.98447 13.0908 4.98447 13.3507V15.5169C4.98447 15.7768 5.15776 15.9501 5.4177 15.9501H5.50435L4.81117 17.2498C4.63788 17.5098 4.89782 17.8564 5.15776 17.8564H7.15063C7.49722 17.8564 7.67051 17.5098 7.49722 17.2498L6.80405 15.9501H6.89069C7.15063 15.9501 7.32393 15.7768 7.32393 15.5169V13.3507C7.32393 13.0908 7.15063 12.9175 6.89069 12.9175H6.7174V8.41186L9.66339 9.27833V13.784C9.66339 14.7371 10.2699 15.4302 11.1364 15.6902L14.3423 16.6433C17.8948 17.6831 21.6206 17.6831 25.1731 16.6433L28.3791 15.6902C29.2455 15.4302 29.8521 14.6504 29.8521 13.784V9.27833L34.7909 7.80533C35.744 7.63204 35.744 6.33234 34.8776 6.0724Z" fill="#F9F9F9"/>
<path d="M35.0787 5.40191L35.0758 5.40106L22.1655 1.5886L22.1513 1.58442L22.137 1.58084C21.3979 1.39606 20.7338 1.3 19.9743 1.3C19.2149 1.3 18.5508 1.39606 17.8117 1.58084L17.7974 1.58442L17.7832 1.5886L4.87287 5.40106L4.87286 5.40105L4.86997 5.40192C4.0851 5.63738 3.72126 6.34532 3.72126 6.98219C3.72126 7.61596 4.08157 8.32011 4.85854 8.55899L4.89099 8.5698V12.3384C4.78951 12.389 4.69398 12.4563 4.60863 12.5417C4.38387 12.7664 4.28447 13.0617 4.28447 13.3507V15.5169C4.28447 15.7778 4.36547 16.0438 4.54658 16.2584L4.2058 16.8974C3.95365 17.3088 4.05561 17.7501 4.23144 18.0264C4.40045 18.292 4.72938 18.5564 5.15776 18.5564H7.15063C8.02652 18.5564 8.55494 17.6296 8.10217 16.8966L7.76182 16.2584C7.94292 16.0438 8.02393 15.7778 8.02393 15.5169V13.3507C8.02393 13.0617 7.92452 12.7664 7.69976 12.5417C7.61441 12.4563 7.51889 12.389 7.4174 12.3384V9.34739L8.96339 9.80209V13.784C8.96339 15.086 9.81267 16.0239 10.9352 16.3607L10.9369 16.3612L14.1428 17.3143L14.1457 17.3151C17.8266 18.3925 21.6889 18.3925 25.3698 17.3151L25.3726 17.3143L28.5786 16.3612L28.5802 16.3607C29.7212 16.0184 30.5521 14.9815 30.5521 13.784V9.80002L34.9585 8.48583C35.7721 8.31804 36.1975 7.6482 36.2163 6.99135C36.2348 6.34326 35.8583 5.63579 35.0787 5.40191Z" stroke="white" stroke-opacity="0.27" stroke-width="1.4"/>
<defs>
<linearGradient id="paint0_linear" x1="15.1383" y1="18.6254" x2="37.9619" y2="40.2374" gradientUnits="userSpaceOnUse">
<stop stop-color="white" stop-opacity="0"/>
<stop offset="1" stop-color="white"/>
</linearGradient>
</defs>
</svg>
