<svg width="100" height="100" viewBox="0 0 100 100" fill="none" xmlns="http://www.w3.org/2000/svg">
<g opacity="0.35">
<path d="M4.6875 96.875H15.625C16.4891 96.875 17.1875 96.175 17.1875 95.3125V93.8984L49.8578 96.8687C49.9047 96.8734 49.9531 96.875 50 96.875C50.0859 96.875 50.1719 96.8688 50.2563 96.8531L69.0063 93.7281C69.2188 93.6937 69.4203 93.6156 69.5984 93.4984L93.5531 78C95.7094 76.6031 96.4688 73.8187 95.3203 71.5203C94.6797 70.2422 93.5219 69.2922 92.1422 68.9156C90.7609 68.5391 89.2828 68.7687 88.0813 69.5469L82.325 73.2719C85.0172 67.2672 86.2391 61.0156 85.9359 54.6141C85.4891 45.1594 81.85 37.8047 78.5844 33.0016L91.7297 19.8563C92.0766 19.5094 92.2406 19.0203 92.1719 18.5344C92.1047 18.0484 91.8125 17.6234 91.3828 17.3859L78.125 10.0188V4.6875C78.125 3.825 77.4266 3.125 76.5625 3.125H57.8125C56.9484 3.125 56.25 3.825 56.25 4.6875V9.375H51.5625C50.6984 9.375 50 10.075 50 10.9375V12.5H46.875V7.8125C46.875 6.95 46.1766 6.25 45.3125 6.25H26.5625C25.6984 6.25 25 6.95 25 7.8125V11.3734L12.0063 15.7047C11.5188 15.8672 11.1422 16.2594 10.9984 16.7531C10.8563 17.2469 10.9656 17.7797 11.2922 18.1766L24.0406 33.7312C20.9141 38.5391 17.6141 45.6422 17.1906 54.6109C16.8578 61.6094 18.3594 68.4547 21.6297 75H17.1875V73.4375C17.1875 72.575 16.4891 71.875 15.625 71.875H4.6875C3.82344 71.875 3.125 72.575 3.125 73.4375V95.3125C3.125 96.175 3.82344 96.875 4.6875 96.875ZM88.0547 19.1094L78.125 29.0406V13.5922L88.0547 19.1094ZM59.375 6.25H75V31.25H71.875V10.9375C71.875 10.075 71.1766 9.375 70.3125 9.375H59.375V6.25ZM53.125 12.5H57.8125H68.75V31.25H53.125V14.0625V12.5ZM50 31.25H46.5875C46.7625 30.7594 46.875 30.2375 46.875 29.6875C46.875 27.1031 44.7719 25 42.1875 25C39.6031 25 37.5 27.1031 37.5 29.6875C37.5 30.2375 37.6125 30.7594 37.7875 31.25H34.375V15.625H45.3125H50V31.25ZM40.625 29.6875C40.625 28.8266 41.325 28.125 42.1875 28.125C43.05 28.125 43.75 28.8266 43.75 29.6875C43.75 30.5484 43.05 31.25 42.1875 31.25C41.325 31.25 40.625 30.5484 40.625 29.6875ZM28.125 9.375H43.75V12.5H32.8125C31.9484 12.5 31.25 13.2 31.25 14.0625V31.25H28.125V9.375ZM25 14.6687V29.9766L15.1469 17.9531L25 14.6687ZM20.3109 54.7609C20.7344 45.7906 24.2828 38.8156 27.3703 34.375H32.8125H51.5625H70.3125H75.7547C78.8422 38.8172 82.3891 45.7906 82.8141 54.7609C83.1734 62.3484 81.2219 69.7312 77.0141 76.7062L65.1641 84.375H48.4375V81.25H60.1562C63.1719 81.25 65.625 78.7969 65.625 75.7812C65.625 72.7656 63.1719 70.3125 60.1562 70.3125H32.8125C32.3969 70.3125 32 70.4766 31.7078 70.7703L27.4781 75H25.1391C21.6063 68.5141 19.9812 61.7094 20.3109 54.7609ZM24.2219 78.125H28.125C28.5406 78.125 28.9375 77.9609 29.2297 77.6672L33.4594 73.4375H60.1562C61.4484 73.4375 62.5 74.4891 62.5 75.7812C62.5 77.0734 61.4484 78.125 60.1562 78.125H46.875C46.0109 78.125 45.3125 78.825 45.3125 79.6875V85.9375C45.3125 86.8 46.0109 87.5 46.875 87.5H65.625C65.925 87.5 66.2219 87.4125 66.4734 87.2484L89.7781 72.1687C90.2422 71.8688 90.7875 71.7828 91.3187 71.9297C91.85 72.075 92.2781 72.425 92.5234 72.9172C92.9594 73.7891 92.6719 74.8453 91.8531 75.375L68.1719 90.6984L49.9406 93.7375L17.1875 90.7609V78.125H24.2219ZM6.25 75H14.0625V76.5625V92.1875V93.75H6.25V75Z" fill="url(#paint0_linear)"/>
<path d="M60.9375 28.125C63.5219 28.125 65.625 26.0219 65.625 23.4375C65.625 20.8531 63.5219 18.75 60.9375 18.75C58.3531 18.75 56.25 20.8531 56.25 23.4375C56.25 26.0219 58.3531 28.125 60.9375 28.125ZM60.9375 21.875C61.8 21.875 62.5 22.5766 62.5 23.4375C62.5 24.2984 61.8 25 60.9375 25C60.075 25 59.375 24.2984 59.375 23.4375C59.375 22.5766 60.075 21.875 60.9375 21.875Z" fill="url(#paint1_linear)"/>
<path d="M50 60.9375C47.4156 60.9375 45.3125 58.8344 45.3125 56.25H42.1875C42.1875 60.0219 44.8766 63.1781 48.4375 63.9047V67.1875H51.5625V63.9047C55.1234 63.1781 57.8125 60.0234 57.8125 56.25C57.8125 55.7109 57.5344 55.2109 57.0781 54.925L45.3844 47.6172C45.7734 45.4219 47.6953 43.75 50 43.75C52.5844 43.75 54.6875 45.8531 54.6875 48.4375H57.8125C57.8125 44.6656 55.1234 41.5094 51.5625 40.7828V37.5H48.4375V40.7828C44.8766 41.5094 42.1875 44.6641 42.1875 48.4375C42.1875 48.9766 42.4656 49.4766 42.9219 49.7625L54.6156 57.0703C54.2266 59.2656 52.3047 60.9375 50 60.9375Z" fill="url(#paint2_linear)"/>
</g>
<defs>
<linearGradient id="paint0_linear" x1="49.4893" y1="3.125" x2="49.4893" y2="96.875" gradientUnits="userSpaceOnUse">
<stop stop-color="#B0988C"/>
<stop offset="1" stop-color="#EDAF2D"/>
</linearGradient>
<linearGradient id="paint1_linear" x1="60.9375" y1="18.75" x2="60.9375" y2="28.125" gradientUnits="userSpaceOnUse">
<stop stop-color="#B0988C"/>
<stop offset="1" stop-color="#EDAF2D"/>
</linearGradient>
<linearGradient id="paint2_linear" x1="50" y1="37.5" x2="50" y2="67.1875" gradientUnits="userSpaceOnUse">
<stop stop-color="#B0988C"/>
<stop offset="1" stop-color="#EDAF2D"/>
</linearGradient>
</defs>
</svg>
