<svg width="50" height="55" viewBox="0 0 50 55" fill="none" xmlns="http://www.w3.org/2000/svg">
<path d="M29.2744 14.5546C30.3879 17.2845 26.9396 21.056 23.0244 25.3305C19.4325 29.2816 13.1106 36.2141 9.23131 34.5977C5.02872 32.8377 3.05315 20.7328 9.23131 14.5546C15.4454 8.34052 27.6221 10.4239 29.2744 14.5546Z" fill="url(#paint0_linear)"/>
<path d="M19.9706 44.9419C14.87 44.9419 9.73352 43.0022 5.85421 39.087C-1.94033 31.2924 -1.94033 18.6128 5.85421 10.8542C13.6487 3.05967 26.3283 3.05967 34.087 10.8542C41.8815 18.6488 41.8815 31.3284 34.087 39.087C30.2077 42.9663 25.0712 44.9419 19.9706 44.9419ZM19.9706 11.4648C16.5223 11.4648 13.0381 12.7939 10.416 15.416C5.13582 20.6962 5.13582 29.245 10.416 34.5252C15.6962 39.8054 24.245 39.8054 29.5252 34.5252C34.8054 29.245 34.8054 20.6962 29.5252 15.416C26.8671 12.7939 23.4189 11.4648 19.9706 11.4648Z" fill="#D3A950"/>
<path d="M47.0905 55C46.3362 55 45.6178 54.7126 45.0431 54.1379L29.7413 38.8721C28.5919 37.7227 28.5919 35.8908 29.7413 34.7773C30.8908 33.6638 32.7227 33.6279 33.8362 34.7773L49.102 50.0431C50.2514 51.1925 50.2514 53.0244 49.102 54.1379C48.5632 54.7126 47.8448 55 47.0905 55Z" fill="#D3A950"/>
<path d="M28.3394 15.9957C27.3697 14.0383 24.1697 12.0808 20.2909 12.0808C16.8 12.0808 13.4061 13.4511 13.3091 16.3872C13.3091 19.4213 16.9939 20.0085 20.6788 20.3021C28.0485 21.0851 36 23.2383 36 32.0468C36 38.5064 31.8303 42.5191 24.0727 43.3021V48H17.2849V43.3021C11.4667 42.7149 6.13333 39.3872 4 34.2979L10.4 31.166C11.8545 34.2979 16.2182 36.6468 20.2909 36.6468C24.7515 36.6468 28.2424 35.9617 28.2424 32.1447C28.2424 29.0128 24.3636 27.7404 20.097 27.3489C12.7273 26.6638 5.64849 25.1957 5.64849 16.3872C5.74546 9.82979 11.3697 6.6 17.3818 6.11064V2H23.8788V6.11064C28.1455 6.6 32.1212 8.45958 34.3515 13.1574L28.3394 15.9957Z" fill="#F9F9F9"/>
<path d="M27.7121 16.3065L28.0171 16.922L28.6382 16.6287L34.6504 13.7905L35.2847 13.491L34.9839 12.8572C32.7311 8.11206 28.7802 6.11288 24.5788 5.49617V2V1.3H23.8788H17.3818H16.6818V2V5.47562C13.8046 5.80255 11.0128 6.75131 8.86709 8.42095C6.54097 10.231 5.00039 12.8721 4.94856 16.3769L4.94849 16.3769V16.3872C4.94849 18.6842 5.41058 20.5508 6.25933 22.0625C7.10926 23.5762 8.32308 24.6914 9.75907 25.5206C12.5979 27.1597 16.3539 27.704 20.0322 28.0459L20.033 28.046C22.1344 28.2388 24.0677 28.6443 25.4543 29.3441C26.8254 30.036 27.5424 30.942 27.5424 32.1447C27.5424 32.9892 27.3507 33.6071 27.0432 34.0726C26.7347 34.5396 26.2746 34.9066 25.6504 35.1896C24.3695 35.7702 22.5169 35.9468 20.2909 35.9468C18.3824 35.9468 16.3884 35.3943 14.7006 34.4673C13.007 33.537 11.6816 32.2636 11.0349 30.8711L10.734 30.2232L10.0923 30.5372L3.69231 33.6691L3.09911 33.9594L3.35442 34.5685C5.52906 39.7564 10.8127 43.1479 16.5849 43.9245V48V48.7H17.2849H24.0727H24.7727V48V43.9272C28.4537 43.4627 31.3832 42.2498 33.4272 40.3111C35.5999 38.2503 36.7 35.4373 36.7 32.0468C36.7 27.3765 34.5652 24.4171 31.4619 22.5639C28.4149 20.7443 24.4551 19.9994 20.7527 19.606L20.7436 19.6051L20.7344 19.6043C18.8853 19.457 17.145 19.2408 15.8762 18.724C15.2502 18.4691 14.7865 18.1591 14.4814 17.791C14.1892 17.4385 14.0114 16.9962 14.0091 16.3988C14.0512 15.2527 14.7192 14.373 15.8632 13.7471C17.0271 13.1103 18.623 12.7808 20.2909 12.7808C22.1144 12.7808 23.7733 13.2415 25.0821 13.9248C26.4042 14.615 27.3134 15.5015 27.7121 16.3065Z" stroke="white" stroke-opacity="0.27" stroke-width="1.4"/>
<defs>
<linearGradient id="paint0_linear" x1="15.1383" y1="20.6254" x2="37.9618" y2="42.2374" gradientUnits="userSpaceOnUse">
<stop stop-color="white" stop-opacity="0"/>
<stop offset="1" stop-color="white"/>
</linearGradient>
</defs>
</svg>
