<svg width="116" height="115" viewBox="0 0 116 115" fill="none" xmlns="http://www.w3.org/2000/svg">
<g opacity="0.35">
<path d="M7.25 73.6719H10.5796L26.2903 78.8631L33.5802 84.8862C34.1906 85.3903 34.905 85.7557 35.6732 85.9566C36.4414 86.1575 37.2446 86.1891 38.0264 86.0492C38.8083 85.9092 39.5496 85.6011 40.1984 85.1466C40.8472 84.692 41.3877 84.1021 41.7817 83.4182L43.5 80.4372V109.609C43.5 110.086 43.691 110.543 44.0309 110.88C44.3708 111.217 44.8318 111.406 45.3125 111.406H99.6875C100.168 111.406 100.629 111.217 100.969 110.88C101.309 110.543 101.5 110.086 101.5 109.609V67.974C101.5 64.2434 100.005 60.6654 97.3445 58.0273C94.6837 55.3891 91.0749 53.9068 87.3118 53.9063H79.75V50.3126C82.6333 50.3097 85.3978 49.1729 87.4366 47.1516C89.4754 45.1304 90.6221 42.3898 90.625 39.5313V34.412L95.6311 18.285C95.9647 17.2099 96.0391 16.0722 95.8483 14.9634C95.6576 13.8546 95.2069 12.8057 94.5327 11.901C93.8586 10.9963 92.9796 10.2611 91.9666 9.75454C90.9535 9.24798 89.8347 8.9842 88.7001 8.98442H53.8457C53.2828 8.98362 52.7276 8.85386 52.2236 8.60528L45.1312 5.08341C44.5782 4.80712 43.9629 4.67591 43.3442 4.7023C42.7255 4.72868 42.1239 4.91179 41.5968 5.23414C41.0697 5.5565 40.6347 6.00736 40.3333 6.54371C40.0319 7.08007 39.8741 7.68404 39.875 8.29802V14.375C39.875 16.2813 40.6388 18.1095 41.9985 19.4574C43.3581 20.8053 45.2022 21.5625 47.125 21.5625V39.5313C47.1279 42.3898 48.2746 45.1304 50.3134 47.1516C52.3522 49.1729 55.1167 50.3097 58 50.3126V53.9063H48.8451C47.472 53.9067 46.1272 54.2936 44.9673 55.022C43.8073 55.7505 42.8799 56.7906 42.2929 58.0211L36.6741 66.2526C36.4151 66.6338 36.0187 66.9022 35.5662 67.0024C35.1138 67.1027 34.6398 67.0273 34.2418 66.7917L28.1227 63.153C27.8418 62.9808 27.5178 62.8899 27.1875 62.8907H23.5625V52.1094C23.5625 51.6329 23.3715 51.1758 23.0316 50.8388C22.6917 50.5019 22.2307 50.3126 21.75 50.3126H10.875C10.3943 50.3126 9.93328 50.5019 9.59337 50.8388C9.25346 51.1758 9.0625 51.6329 9.0625 52.1094V59.2969H7.25C6.28859 59.2969 5.36656 59.6756 4.68674 60.3495C4.00692 61.0235 3.625 61.9376 3.625 62.8907V70.0782C3.625 71.0313 4.00692 71.9454 4.68674 72.6193C5.36656 73.2933 6.28859 73.6719 7.25 73.6719ZM47.125 88.3829L50.0758 80.8594H87.6743L90.625 88.3829V107.813H47.125V88.3829ZM65.25 57.5001L63.4375 59.8953L61.625 57.5001H65.25ZM76.125 57.5001L74.3125 59.8953L72.5 57.5001H76.125ZM61.9875 63.9688C62.1637 64.181 62.385 64.352 62.6357 64.4693C62.8864 64.5867 63.1603 64.6476 63.4375 64.6476C63.7147 64.6476 63.9886 64.5867 64.2393 64.4693C64.49 64.352 64.7113 64.181 64.8875 63.9688L68.875 58.6986L72.8625 63.9688C73.0387 64.181 73.26 64.352 73.5107 64.4693C73.7614 64.5867 74.0353 64.6476 74.3125 64.6476C74.5897 64.6476 74.8636 64.5867 75.1143 64.4693C75.365 64.352 75.5863 64.181 75.7625 63.9688L79.2443 59.3688L86.2641 77.2657H51.4859L58.5057 59.3688L61.9875 63.9688ZM94.7811 60.5673C95.7652 61.5378 96.5453 62.6921 97.0764 63.9634C97.6075 65.2348 97.8789 66.598 97.875 67.974V107.813H94.25V73.6719H90.625V78.4714L82.3981 57.5001H87.3118C88.6995 57.4962 90.0742 57.7653 91.3564 58.2919C92.6385 58.8184 93.8025 59.5918 94.7811 60.5673ZM43.5 14.375V8.29802L50.6032 11.8199C51.6106 12.317 52.7204 12.5765 53.8457 12.5782H88.7001C89.2674 12.5781 89.8268 12.71 90.3333 12.9632C90.8399 13.2165 91.2793 13.5841 91.6164 14.0365C91.9535 14.4888 92.1788 15.0133 92.2742 15.5677C92.3696 16.1221 92.3324 16.6909 92.1656 17.2285L89.0608 27.2317C87.7382 24.4627 85.6503 22.1225 83.0397 20.4829C80.4291 18.8433 77.4029 17.9715 74.3125 17.9688H47.125C46.1636 17.9688 45.2416 17.5902 44.5617 16.9162C43.8819 16.2423 43.5 15.3282 43.5 14.375ZM50.75 39.5313V21.5625H74.3125C77.6763 21.5664 80.9011 22.8928 83.2797 25.2508C85.6582 27.6088 86.9962 30.8059 87 34.1407V39.5313C87 41.4375 86.2362 43.2657 84.8765 44.6136C83.5169 45.9615 81.6728 46.7188 79.75 46.7188H58C56.0772 46.7188 54.2331 45.9615 52.8735 44.6136C51.5138 43.2657 50.75 41.4375 50.75 39.5313ZM61.625 50.3126H76.125V53.9063H61.625V50.3126ZM29 67.8608L32.3731 69.8679C33.5658 70.5779 34.9877 70.8076 36.3461 70.5098C37.7045 70.212 38.8961 69.4093 39.6756 68.2669L45.3778 59.9115C45.4378 59.8239 45.4899 59.7313 45.5336 59.6347C45.8183 58.9996 46.2826 58.4599 46.8703 58.081C47.458 57.7021 48.144 57.5003 48.8451 57.5001H55.3519L47.125 78.4714V73.6719C47.1264 73.2752 46.9953 72.8892 46.7522 72.5741C46.5091 72.259 46.1677 72.0325 45.7812 71.93C45.3946 71.8274 44.9847 71.8545 44.6154 72.0071C44.246 72.1597 43.9379 72.4292 43.7393 72.7735L38.6334 81.6285C38.5021 81.8562 38.3222 82.0526 38.1062 82.204C37.8901 82.3553 37.6433 82.458 37.383 82.5048C37.1227 82.5515 36.8553 82.5412 36.5994 82.4746C36.3436 82.4079 36.1055 82.2866 35.902 82.119L29 76.4247V67.8608ZM23.5625 70.0782V66.4844H25.375V74.7716L16.6079 71.8751H21.75C22.2307 71.8751 22.6917 71.6857 23.0316 71.3488C23.3715 71.0118 23.5625 70.5547 23.5625 70.0782ZM19.9375 53.9063V68.2813H17.8676C18.0308 67.6958 18.1173 67.0919 18.125 66.4844C18.119 64.8956 17.5821 63.3535 16.5983 62.0993C15.6145 60.845 14.2393 59.9493 12.6875 59.5521V53.9063H19.9375ZM7.25 62.8907H10.875C11.8364 62.8907 12.7584 63.2693 13.4383 63.9433C14.1181 64.6172 14.5 65.5313 14.5 66.4844C14.5 67.4376 14.1181 68.3516 13.4383 69.0256C12.7584 69.6996 11.8364 70.0782 10.875 70.0782H7.25V62.8907Z" fill="url(#paint0_linear)"/>
<path d="M16.3125 35.9375H12.6875V46.7188H16.3125V35.9375Z" fill="url(#paint1_linear)"/>
<path d="M23.5625 32.3438H19.9375V41.3281H23.5625V32.3438Z" fill="url(#paint2_linear)"/>
<path d="M58 28.75H54.375V32.3438H58V28.75Z" fill="url(#paint3_linear)"/>
<path d="M74.3125 28.75H70.6875V32.3438H74.3125V28.75Z" fill="url(#paint4_linear)"/>
<path d="M61.9116 39.7429L54.8773 37.9999L54 41.4859L61.25 43.2828C61.3934 43.3187 61.5407 43.3368 61.6886 43.3367L67.1261 43.3367C67.274 43.3368 67.4214 43.3187 67.5648 43.2828L74.8148 41.4859L73.9375 38L66.9032 39.7429L61.9116 39.7429Z" fill="url(#paint5_linear)"/>
</g>
<defs>
<linearGradient id="paint0_linear" x1="52.5625" y1="4.69897" x2="52.5625" y2="111.406" gradientUnits="userSpaceOnUse">
<stop stop-color="#B0988C"/>
<stop offset="1" stop-color="#EDAF2D"/>
</linearGradient>
<linearGradient id="paint1_linear" x1="14.5" y1="35.9375" x2="14.5" y2="46.7188" gradientUnits="userSpaceOnUse">
<stop stop-color="#B0988C"/>
<stop offset="1" stop-color="#EDAF2D"/>
</linearGradient>
<linearGradient id="paint2_linear" x1="21.75" y1="32.3438" x2="21.75" y2="41.3281" gradientUnits="userSpaceOnUse">
<stop stop-color="#B0988C"/>
<stop offset="1" stop-color="#EDAF2D"/>
</linearGradient>
<linearGradient id="paint3_linear" x1="56.1875" y1="28.75" x2="56.1875" y2="32.3438" gradientUnits="userSpaceOnUse">
<stop stop-color="#B0988C"/>
<stop offset="1" stop-color="#EDAF2D"/>
</linearGradient>
<linearGradient id="paint4_linear" x1="72.5" y1="28.75" x2="72.5" y2="32.3438" gradientUnits="userSpaceOnUse">
<stop stop-color="#B0988C"/>
<stop offset="1" stop-color="#EDAF2D"/>
</linearGradient>
<linearGradient id="paint5_linear" x1="64.4074" y1="43.3367" x2="64.4074" y2="37.9999" gradientUnits="userSpaceOnUse">
<stop stop-color="#B0988C"/>
<stop offset="1" stop-color="#EDAF2D"/>
</linearGradient>
</defs>
</svg>
