<svg width="294" height="95" viewBox="0 0 294 95" fill="none" xmlns="http://www.w3.org/2000/svg">
<rect y="26.76" width="274" height="68" rx="15" transform="rotate(-5.60468 0 26.76)" fill="#FA2020"/>
<path d="M44.303 40.1452L47.4626 72.3425L53.7206 71.7284L51.0954 44.9769L57.4966 44.3487L60.1218 71.1002L66.3798 70.4861L63.2201 38.2888L44.303 40.1452ZM77.7392 36.4781C70.6214 37.1766 67.8795 45.1143 68.7421 53.9041C69.6093 62.7417 73.235 70.1992 80.5439 69.482C86.6585 68.8819 90.475 63.5396 89.2843 51.4059C88.5624 44.0493 85.5258 35.714 77.7392 36.4781ZM78.0348 41.9474C80.8532 41.6708 82.2147 46.6979 82.7679 52.3348C83.4101 58.8794 82.8757 63.7549 80.2483 64.0127C77.7165 64.2611 75.9655 60.671 75.2483 53.3621C74.5685 46.4354 75.5507 42.1912 78.0348 41.9474ZM93.6858 35.2991L94.4827 43.4201C94.8531 47.1939 94.9368 50.9959 94.6767 54.7352C94.4091 57.4141 93.9794 59.9161 93.2153 62.4508L90.9317 62.7714L92.3753 75.025L97.1524 74.5562L96.7021 67.5105L110.699 66.1369L111.627 73.1357L116.356 72.6716L115.438 60.3665L112.897 60.5194L110.262 33.6724L93.6858 35.2991ZM99.9527 40.1824L104.586 39.7276L106.677 61.0333L99.6549 61.7224C100.132 59.6982 100.461 57.1579 100.618 54.8274C100.806 51.3363 100.679 47.5868 100.318 43.9085L99.9527 40.1824ZM123.889 32.3351L127.049 64.5324L133.164 63.9324L131.823 50.27L132.301 50.2231C134.88 49.97 135.979 52.3219 137.114 56.0208C137.888 58.501 138.623 61.0815 139.613 63.2995L145.871 62.6854C144.625 59.8174 143.799 56.8116 142.778 53.7769C141.486 49.9488 140.092 47.047 136.674 46.1285L142.615 30.4974L135.737 31.1725L131.855 45.6849L131.378 45.7318L130.004 31.735L123.889 32.3351ZM148.037 29.9654L149.462 44.4876C150.076 50.7456 149.984 54.2272 148.308 56.3209C147.791 56.9504 147.017 57.4123 146.271 57.6783L148.129 62.8496C149.706 62.6949 151.173 61.9239 152.274 60.8513C156.025 57.2999 155.865 50.7563 155.138 43.3518L154.304 34.8487L159.081 34.3799L161.706 61.1314L167.964 60.5173L164.805 28.3199L148.037 29.9654ZM170.354 27.7754L173.513 59.9727L179.676 59.368L178.335 45.7056L181.201 45.4243C182.467 53.4029 186.067 59.1267 192.134 58.5313C197.818 57.9734 201.492 52.6452 200.301 40.5115C199.579 33.1549 196.542 24.8196 189.329 25.5274C183.549 26.0947 180.72 32.16 180.701 39.8305L177.787 40.1165L176.516 27.1706L170.354 27.7754ZM191.743 53.0714C189.211 53.3199 187.739 48.6412 187.111 42.24C186.539 36.412 187.045 31.2499 189.577 31.0014C192.156 30.7483 193.47 35.78 194.023 41.4169C194.665 47.9615 194.227 52.8276 191.743 53.0714ZM202.257 24.6446L203.378 36.0617C203.898 41.3643 206.27 44.8935 211.812 44.3497C213.484 44.1856 214.874 43.615 216.29 42.8009L216.433 42.7869L217.694 55.6371L223.856 55.0324L220.697 22.8351L214.534 23.4398L215.96 37.962C215.376 38.4051 214.353 38.7949 213.446 38.884C210.914 39.1324 209.728 37.3678 209.47 34.7404L208.42 24.0398L202.257 24.6446ZM233.916 43.4827L232.547 21.6721L225.716 22.3425L228.566 44.0078L233.916 43.4827ZM232.353 54.5845C234.502 54.3735 235.728 52.6134 235.513 50.4159C235.283 48.0752 233.604 46.6965 231.55 46.8981C229.639 47.0856 228.117 48.7784 228.347 51.1191C228.563 53.3166 230.299 54.7861 232.353 54.5845Z" fill="#FCFAF4"/>
<path d="M271.574 57.287C267.819 56.8038 265.165 53.3656 265.648 49.6108C265.78 48.5836 266.156 47.6236 266.7 46.7573C265.724 47.0639 264.7 47.1843 263.673 47.0521C259.918 46.569 257.264 43.1307 257.747 39.3759C258.23 35.6212 261.668 32.9668 265.423 33.4499C269.178 33.933 271.832 37.3713 271.349 41.1261C271.217 42.1533 270.841 43.1132 270.298 43.9795C271.273 43.673 272.297 43.5526 273.324 43.6848C277.079 44.1679 279.733 47.6062 279.25 51.361C278.767 55.1157 275.329 57.7701 271.574 57.287ZM242.758 84.2227C243.786 84.3549 254.373 75.6707 255.852 74.5287C256.092 74.3435 256.275 74.043 256.312 73.7596C256.416 72.9449 253.577 69.2667 252.762 69.1619C251.841 69.0434 248.544 72.0039 247.704 72.6521L244.741 68.814L258.934 57.8571C262.298 61.0986 266.59 63.5593 271.266 64.161C278.988 65.1545 284.989 60.4894 285.979 52.8028C287.473 41.1843 277.35 28.0709 265.731 26.5759C258.045 25.5869 252.012 30.212 251.019 37.9341C250.417 42.6098 251.711 47.3854 253.995 51.4603L227.169 72.1704C226.449 72.726 225.981 73.566 225.867 74.4515C225.612 76.4352 227.587 78.9939 229.571 79.2491C230.456 79.3631 231.388 79.1228 232.107 78.5672L240.903 71.777L243.866 75.6151C243.026 76.2632 239.327 78.704 239.209 79.625C239.104 80.4397 241.944 84.1179 242.758 84.2227Z" fill="#EDAF2D"/>
</svg>
