<svg width="92" height="92" viewBox="0 0 92 92" fill="none" xmlns="http://www.w3.org/2000/svg">
<g opacity="0.35">
<path d="M30.8403 57.2133V57.0383H30.6653H11.4996H11.3246V57.2133V66.7953V66.9703H11.4996H30.6653H30.8403V66.7953V57.2133ZM11.3246 72.5453V72.7203H11.4996H30.6653H30.8403V72.5453V70.6277V70.4527H30.6653H11.4996H11.3246V70.6277V72.5453ZM9.58346 53.5534H32.5829C33.5445 53.5534 34.3239 54.334 34.3239 55.2957V74.4629C34.3239 75.422 33.5446 76.2027 32.5827 76.2027H9.58346C8.62157 76.2027 7.84227 75.422 7.84227 74.4629V55.2959C7.84227 54.334 8.62189 53.5534 9.58346 53.5534Z" fill="url(#paint0_linear)" stroke="white" stroke-width="0.35"/>
<path d="M84.1534 55.2957V55.2957V74.4629C84.1534 75.422 83.3727 76.2027 82.4137 76.2027H59.4144C58.4523 76.2027 57.6718 75.4218 57.6718 74.4629V55.2959C57.6718 54.3342 58.4525 53.5534 59.4144 53.5534H82.4137C83.3726 53.5534 84.1536 54.334 84.1534 55.2957ZM80.6712 57.2133V57.0383H80.4962H61.3293H61.1543V57.2133V66.7953V66.9703H61.3293H80.4962H80.6712V66.7953V57.2133ZM61.1543 72.5453V72.7203H61.3293H80.4962H80.6712V72.5453V70.6277V70.4527H80.4962H61.3293H61.1543V70.6277V72.5453Z" fill="url(#paint1_linear)" stroke="white" stroke-width="0.35"/>
<path d="M43.9061 70.6276C43.9061 71.5897 43.1265 72.3703 42.1649 72.3703C41.2034 72.3703 40.4237 71.5895 40.4237 70.6276C40.4237 69.6661 41.2029 68.8879 42.1649 68.8879C43.127 68.8879 43.9061 69.6659 43.9061 70.6276Z" fill="url(#paint2_linear)" stroke="white" stroke-width="0.35"/>
<path d="M54.4787 14.9872H54.4019L54.35 15.0438C52.2787 17.2946 49.3124 18.7059 46.0196 18.7061C39.7754 18.7061 34.6949 13.6256 34.6949 7.38142C34.6949 6.4197 35.4755 5.64023 36.4376 5.64023H54.8661H54.9275L54.9754 5.60196C55.7663 4.97011 57.1452 4.13684 58.7539 4.32516C59.7405 4.44104 61.1748 4.99067 62.3053 7.00787L62.3053 7.008C63.0274 8.294 62.8875 10.1151 61.9116 11.6474L61.9116 11.6474C61.2083 12.7529 60.1256 13.6436 58.7786 14.218L58.7786 14.218C57.5772 14.7308 56.1833 14.9901 54.6191 14.9901C54.5997 14.9901 54.5786 14.9895 54.5542 14.9888L54.553 14.9887C54.53 14.988 54.5039 14.9872 54.4787 14.9872ZM58.3491 7.78451L58.3482 7.78441C58.194 7.76633 58.0212 7.81577 57.8656 7.88155C57.7045 7.94965 57.5372 8.04607 57.385 8.14853L57.3148 8.19577L57.3083 8.28012C57.2364 9.20319 57.0512 10.0961 56.7692 10.945L56.6601 11.2733L56.9892 11.1666C57.7619 10.9162 58.3897 10.5268 58.8123 10.0024L58.8128 10.0018C59.2754 9.42261 59.3053 8.90823 59.2717 8.73601L59.2662 8.7076L59.2518 8.68248C59.0833 8.38862 58.921 8.17657 58.7741 8.03294C58.6326 7.89459 58.4865 7.80133 58.3491 7.78451ZM38.5965 9.12225H38.3706L38.427 9.34096C39.2985 12.7193 42.3722 15.2221 46.0196 15.2221C49.6671 15.2221 52.7422 12.7195 53.6123 9.34089L53.6686 9.12225H53.4428H38.5965Z" fill="url(#paint3_linear)" stroke="white" stroke-width="0.35"/>
<mask id="path-5-inside-1" fill="white">
<path d="M91.0383 48.774C91.6308 48.4315 91.9957 47.7998 91.9957 47.1148V40.0105C91.9957 39.995 91.9986 39.9796 91.9986 39.9627C91.9986 39.6202 91.9087 39.2987 91.7515 39.0193L86.2459 28.011V20.797C86.2459 19.7387 85.3897 18.8809 84.3284 18.8809H46.0196H7.66744C6.6089 18.8809 5.74982 19.7385 5.74982 20.797V28.011L0.203583 39.1063C0.189567 39.1329 0.178247 39.1597 0.165669 39.1877C0.157223 39.206 0.148778 39.2256 0.14177 39.2438C0.12488 39.2831 0.110864 39.3237 0.0968484 39.3645C0.0912781 39.3828 0.0857078 39.401 0.0799578 39.4206C0.0645046 39.4696 0.0519265 39.5189 0.0420437 39.5679C0.0391687 39.5791 0.0379109 39.5904 0.0364734 39.6017C0.0265906 39.6481 0.0195828 39.6944 0.0140125 39.742C0.012575 39.7546 0.0111375 39.7686 0.00987964 39.7828C0.00430933 39.8389 0.00143433 39.8951 0.00143433 39.9499C0.00143433 39.9541 0.00143433 39.9584 0.00143433 39.9625V47.1146C0.00143433 47.7996 0.364942 48.4314 0.957372 48.7739C1.26338 48.9507 1.58628 49.0968 1.91762 49.2146V84.0449C0.859083 84.0449 0.00143433 84.9013 0.00143433 85.9595C0.00143433 87.018 0.859083 87.8771 1.91762 87.8771H3.83381H38.3313H53.6646H88.1635H90.0781C91.1366 87.8771 91.9957 87.018 91.9957 85.9595C91.9957 84.9011 91.1366 84.0449 90.0781 84.0449V49.2148C90.4094 49.0967 90.7323 48.9508 91.0383 48.774ZM84.3286 41.8787C83.2729 41.8787 82.4139 42.7378 82.4139 43.7963C82.4139 44.8534 81.5548 45.7125 80.4962 45.7125C79.4377 45.7125 78.5786 44.8534 78.5786 43.7963C78.5786 42.7378 77.7195 41.8787 76.664 41.8787C75.6028 41.8787 74.7464 42.7378 74.7464 43.7963C74.7464 44.8534 73.8875 45.7125 72.829 45.7125C71.7733 45.7125 70.9142 44.8534 70.9142 43.7963C70.9142 42.7378 70.0551 41.8787 68.9966 41.8787C67.938 41.8787 67.079 42.7378 67.079 43.7963C67.079 44.8534 66.2199 45.7125 65.1644 45.7125C64.1087 45.7125 63.2468 44.8534 63.2468 43.7963C63.2468 42.7378 62.3906 41.8787 61.3293 41.8787C60.2737 41.8787 59.4146 42.7378 59.4146 43.7963C59.4146 44.8534 58.5555 45.7125 57.4969 45.7125C56.4413 45.7125 55.5793 44.8534 55.5793 43.7963C55.5793 42.7378 54.7229 41.8787 53.6648 41.8787C52.6062 41.8787 51.75 42.7378 51.75 43.7963C51.75 44.8534 50.8882 45.7125 49.8297 45.7125C48.774 45.7125 47.9149 44.8534 47.9149 43.7963C47.9149 42.7378 47.0573 41.8787 45.9987 41.8787C44.9404 41.8787 44.0813 42.7378 44.0813 43.7963C44.0813 44.8534 43.2222 45.7125 42.1651 45.7125C41.108 45.7125 40.2489 44.8534 40.2489 43.7963C40.2489 42.7378 39.3898 41.8787 38.3315 41.8787C37.2731 41.8787 36.4153 42.7378 36.4153 43.7963C36.4153 44.8534 35.5562 45.7125 34.4991 45.7125C33.4422 45.7125 32.5829 44.8534 32.5829 43.7963C32.5829 42.7378 31.7238 41.8787 30.6655 41.8787C29.6069 41.8787 28.7493 42.7378 28.7493 43.7963C28.7493 44.8534 27.8888 45.7125 26.8331 45.7125C25.776 45.7125 24.9156 44.8534 24.9156 43.7963C24.9156 42.7378 24.058 41.8787 22.9995 41.8787C21.9411 41.8787 21.0833 42.7378 21.0833 43.7963C21.0833 44.8534 20.2227 45.7125 19.1658 45.7125C18.1102 45.7125 17.2496 44.8534 17.2496 43.7963C17.2496 42.7378 16.392 41.8787 15.3335 41.8787C14.2751 41.8787 13.4173 42.7378 13.4173 43.7963C13.4173 44.8534 12.5567 45.7125 11.4996 45.7125C10.4427 45.7125 9.58345 44.8534 9.58345 43.7963C9.58345 42.7378 8.7258 41.8787 7.66726 41.8787C6.60872 41.8787 5.74964 42.7378 5.74964 43.7963C5.74964 44.8534 4.89055 45.7125 3.83345 45.7125V41.8787H7.66708H15.3331H22.9991H30.6651H38.3311H45.9984H53.6644H61.329H68.9962H76.6637H84.3286H88.1637V45.7125C87.1051 45.7125 86.246 44.8534 86.246 43.7963C86.246 42.7378 85.3898 41.8787 84.3286 41.8787ZM9.58345 22.7131H82.4137V26.5467H9.58345V22.7131ZM8.85069 30.3805H83.1437L86.9788 38.0465H5.01849L8.85069 30.3805ZM40.2487 84.0451V70.6278V57.2134H51.7498V84.0451H40.2487ZM55.5793 84.0451V55.2956C55.5793 54.2372 54.7229 53.3782 53.6648 53.3782H38.3315C37.2729 53.3782 36.4153 54.2372 36.4153 55.2956V84.0449H5.74982V49.2175C6.46444 48.962 7.11437 48.5731 7.66744 48.0776C8.68519 48.99 10.0285 49.546 11.4996 49.546C12.9709 49.546 14.3157 48.99 15.3333 48.0776C16.351 48.99 17.6944 49.546 19.1656 49.546C20.6382 49.546 21.9815 48.99 22.9993 48.0776C24.017 48.99 25.3618 49.546 26.8329 49.546C28.3042 49.546 29.6475 48.99 30.6653 48.0776C31.683 48.99 33.0278 49.546 34.4989 49.546C35.9702 49.546 37.3135 48.99 38.3313 48.0776C39.3505 48.99 40.6938 49.546 42.1649 49.546C43.636 49.546 44.9808 48.99 45.9986 48.0776C47.0163 48.99 48.3598 49.546 49.8295 49.546C51.3008 49.546 52.6483 48.99 53.6646 48.0776C54.6807 48.99 56.0257 49.546 57.4968 49.546C58.9679 49.546 60.3128 48.99 61.3291 48.0776C62.3483 48.99 63.6929 49.546 65.1642 49.546C66.6353 49.546 67.9772 48.99 68.9964 48.0776C70.0156 48.99 71.3577 49.546 72.8288 49.546C74.2999 49.546 75.6447 48.99 76.6639 48.0776C77.68 48.99 79.0249 49.546 80.496 49.546C81.9672 49.546 83.3121 48.99 84.3284 48.0776C84.8844 48.5731 85.5302 48.962 86.2459 49.2175V84.0449H55.5793V84.0451Z"/>
</mask>
<path d="M91.0383 48.774C91.6308 48.4315 91.9957 47.7998 91.9957 47.1148V40.0105C91.9957 39.995 91.9986 39.9796 91.9986 39.9627C91.9986 39.6202 91.9087 39.2987 91.7515 39.0193L86.2459 28.011V20.797C86.2459 19.7387 85.3897 18.8809 84.3284 18.8809H46.0196H7.66744C6.6089 18.8809 5.74982 19.7385 5.74982 20.797V28.011L0.203583 39.1063C0.189567 39.1329 0.178247 39.1597 0.165669 39.1877C0.157223 39.206 0.148778 39.2256 0.14177 39.2438C0.12488 39.2831 0.110864 39.3237 0.0968484 39.3645C0.0912781 39.3828 0.0857078 39.401 0.0799578 39.4206C0.0645046 39.4696 0.0519265 39.5189 0.0420437 39.5679C0.0391687 39.5791 0.0379109 39.5904 0.0364734 39.6017C0.0265906 39.6481 0.0195828 39.6944 0.0140125 39.742C0.012575 39.7546 0.0111375 39.7686 0.00987964 39.7828C0.00430933 39.8389 0.00143433 39.8951 0.00143433 39.9499C0.00143433 39.9541 0.00143433 39.9584 0.00143433 39.9625V47.1146C0.00143433 47.7996 0.364942 48.4314 0.957372 48.7739C1.26338 48.9507 1.58628 49.0968 1.91762 49.2146V84.0449C0.859083 84.0449 0.00143433 84.9013 0.00143433 85.9595C0.00143433 87.018 0.859083 87.8771 1.91762 87.8771H3.83381H38.3313H53.6646H88.1635H90.0781C91.1366 87.8771 91.9957 87.018 91.9957 85.9595C91.9957 84.9011 91.1366 84.0449 90.0781 84.0449V49.2148C90.4094 49.0967 90.7323 48.9508 91.0383 48.774ZM84.3286 41.8787C83.2729 41.8787 82.4139 42.7378 82.4139 43.7963C82.4139 44.8534 81.5548 45.7125 80.4962 45.7125C79.4377 45.7125 78.5786 44.8534 78.5786 43.7963C78.5786 42.7378 77.7195 41.8787 76.664 41.8787C75.6028 41.8787 74.7464 42.7378 74.7464 43.7963C74.7464 44.8534 73.8875 45.7125 72.829 45.7125C71.7733 45.7125 70.9142 44.8534 70.9142 43.7963C70.9142 42.7378 70.0551 41.8787 68.9966 41.8787C67.938 41.8787 67.079 42.7378 67.079 43.7963C67.079 44.8534 66.2199 45.7125 65.1644 45.7125C64.1087 45.7125 63.2468 44.8534 63.2468 43.7963C63.2468 42.7378 62.3906 41.8787 61.3293 41.8787C60.2737 41.8787 59.4146 42.7378 59.4146 43.7963C59.4146 44.8534 58.5555 45.7125 57.4969 45.7125C56.4413 45.7125 55.5793 44.8534 55.5793 43.7963C55.5793 42.7378 54.7229 41.8787 53.6648 41.8787C52.6062 41.8787 51.75 42.7378 51.75 43.7963C51.75 44.8534 50.8882 45.7125 49.8297 45.7125C48.774 45.7125 47.9149 44.8534 47.9149 43.7963C47.9149 42.7378 47.0573 41.8787 45.9987 41.8787C44.9404 41.8787 44.0813 42.7378 44.0813 43.7963C44.0813 44.8534 43.2222 45.7125 42.1651 45.7125C41.108 45.7125 40.2489 44.8534 40.2489 43.7963C40.2489 42.7378 39.3898 41.8787 38.3315 41.8787C37.2731 41.8787 36.4153 42.7378 36.4153 43.7963C36.4153 44.8534 35.5562 45.7125 34.4991 45.7125C33.4422 45.7125 32.5829 44.8534 32.5829 43.7963C32.5829 42.7378 31.7238 41.8787 30.6655 41.8787C29.6069 41.8787 28.7493 42.7378 28.7493 43.7963C28.7493 44.8534 27.8888 45.7125 26.8331 45.7125C25.776 45.7125 24.9156 44.8534 24.9156 43.7963C24.9156 42.7378 24.058 41.8787 22.9995 41.8787C21.9411 41.8787 21.0833 42.7378 21.0833 43.7963C21.0833 44.8534 20.2227 45.7125 19.1658 45.7125C18.1102 45.7125 17.2496 44.8534 17.2496 43.7963C17.2496 42.7378 16.392 41.8787 15.3335 41.8787C14.2751 41.8787 13.4173 42.7378 13.4173 43.7963C13.4173 44.8534 12.5567 45.7125 11.4996 45.7125C10.4427 45.7125 9.58345 44.8534 9.58345 43.7963C9.58345 42.7378 8.7258 41.8787 7.66726 41.8787C6.60872 41.8787 5.74964 42.7378 5.74964 43.7963C5.74964 44.8534 4.89055 45.7125 3.83345 45.7125V41.8787H7.66708H15.3331H22.9991H30.6651H38.3311H45.9984H53.6644H61.329H68.9962H76.6637H84.3286H88.1637V45.7125C87.1051 45.7125 86.246 44.8534 86.246 43.7963C86.246 42.7378 85.3898 41.8787 84.3286 41.8787ZM9.58345 22.7131H82.4137V26.5467H9.58345V22.7131ZM8.85069 30.3805H83.1437L86.9788 38.0465H5.01849L8.85069 30.3805ZM40.2487 84.0451V70.6278V57.2134H51.7498V84.0451H40.2487ZM55.5793 84.0451V55.2956C55.5793 54.2372 54.7229 53.3782 53.6648 53.3782H38.3315C37.2729 53.3782 36.4153 54.2372 36.4153 55.2956V84.0449H5.74982V49.2175C6.46444 48.962 7.11437 48.5731 7.66744 48.0776C8.68519 48.99 10.0285 49.546 11.4996 49.546C12.9709 49.546 14.3157 48.99 15.3333 48.0776C16.351 48.99 17.6944 49.546 19.1656 49.546C20.6382 49.546 21.9815 48.99 22.9993 48.0776C24.017 48.99 25.3618 49.546 26.8329 49.546C28.3042 49.546 29.6475 48.99 30.6653 48.0776C31.683 48.99 33.0278 49.546 34.4989 49.546C35.9702 49.546 37.3135 48.99 38.3313 48.0776C39.3505 48.99 40.6938 49.546 42.1649 49.546C43.636 49.546 44.9808 48.99 45.9986 48.0776C47.0163 48.99 48.3598 49.546 49.8295 49.546C51.3008 49.546 52.6483 48.99 53.6646 48.0776C54.6807 48.99 56.0257 49.546 57.4968 49.546C58.9679 49.546 60.3128 48.99 61.3291 48.0776C62.3483 48.99 63.6929 49.546 65.1642 49.546C66.6353 49.546 67.9772 48.99 68.9964 48.0776C70.0156 48.99 71.3577 49.546 72.8288 49.546C74.2999 49.546 75.6447 48.99 76.6639 48.0776C77.68 48.99 79.0249 49.546 80.496 49.546C81.9672 49.546 83.3121 48.99 84.3284 48.0776C84.8844 48.5731 85.5302 48.962 86.2459 49.2175V84.0449H55.5793V84.0451Z" fill="url(#paint4_linear)"/>
<path d="M91.0383 48.774L91.2134 49.0771L91.2135 49.077L91.0383 48.774ZM91.7515 39.0193L91.4385 39.1759L91.4423 39.1835L91.4465 39.191L91.7515 39.0193ZM86.2459 28.011H85.8959V28.0936L85.9328 28.1675L86.2459 28.011ZM5.74982 28.011L6.06288 28.1675L6.09982 28.0936V28.011H5.74982ZM0.203583 39.1063L0.513285 39.2695L0.516649 39.2628L0.203583 39.1063ZM0.165669 39.1877L0.483562 39.3342L0.484994 39.331L0.165669 39.1877ZM0.14177 39.2438L0.463615 39.3819L0.468274 39.3698L0.14177 39.2438ZM0.0968484 39.3645L-0.23437 39.2507L-0.238027 39.2627L0.0968484 39.3645ZM0.0799578 39.4206L0.41385 39.5258L0.415785 39.5192L0.0799578 39.4206ZM0.0420437 39.5679L0.380941 39.6554L0.383292 39.6463L0.38515 39.637L0.0420437 39.5679ZM0.0364734 39.6017L0.378782 39.6747L0.381838 39.6603L0.383685 39.6458L0.0364734 39.6017ZM0.0140125 39.742L-0.333618 39.7014L-0.333724 39.7023L0.0140125 39.742ZM0.00987964 39.7828L0.358184 39.8174L0.358514 39.8137L0.00987964 39.7828ZM0.957372 48.7739L0.782201 49.0769L0.782269 49.0769L0.957372 48.7739ZM1.91762 49.2146H2.26762V48.9677L2.03493 48.8849L1.91762 49.2146ZM1.91762 84.0449V84.3949H2.26762V84.0449H1.91762ZM90.0781 84.0449H89.7281V84.3949H90.0781V84.0449ZM90.0781 49.2148L89.9606 48.8851L89.7281 48.968V49.2148H90.0781ZM3.83345 45.7125H3.48345V46.0625H3.83345V45.7125ZM3.83345 41.8787V41.5287H3.48345V41.8787H3.83345ZM88.1637 41.8787H88.5137V41.5287H88.1637V41.8787ZM88.1637 45.7125V46.0625H88.5137V45.7125H88.1637ZM9.58345 22.7131V22.3631H9.23345V22.7131H9.58345ZM82.4137 22.7131H82.7637V22.3631H82.4137V22.7131ZM82.4137 26.5467V26.8967H82.7637V26.5467H82.4137ZM9.58345 26.5467H9.23345V26.8967H9.58345V26.5467ZM8.85069 30.3805V30.0305H8.63435L8.53762 30.224L8.85069 30.3805ZM83.1437 30.3805L83.4568 30.2239L83.36 30.0305H83.1437V30.3805ZM86.9788 38.0465V38.3965H87.5453L87.2918 37.8899L86.9788 38.0465ZM5.01849 38.0465L4.70543 37.89L4.45223 38.3965H5.01849V38.0465ZM40.2487 84.0451H39.8987V84.3951H40.2487V84.0451ZM40.2487 57.2134V56.8634H39.8987V57.2134H40.2487ZM51.7498 57.2134H52.0998V56.8634H51.7498V57.2134ZM51.7498 84.0451V84.3951H52.0998V84.0451H51.7498ZM36.4153 84.0449V84.3949H36.7653V84.0449H36.4153ZM5.74982 84.0449H5.39982V84.3949H5.74982V84.0449ZM5.74982 49.2175L5.63198 48.8879L5.39982 48.9709V49.2175H5.74982ZM7.66744 48.0776L7.90108 47.817L7.66751 47.6076L7.43388 47.8169L7.66744 48.0776ZM15.3333 48.0776L15.5669 47.817L15.3333 47.6075L15.0996 47.817L15.3333 48.0776ZM22.9993 48.0776L23.2329 47.817L22.9993 47.6075L22.7656 47.817L22.9993 48.0776ZM30.6653 48.0776L30.8989 47.817L30.6653 47.6075L30.4317 47.817L30.6653 48.0776ZM38.3313 48.0776L38.5648 47.8168L38.3311 47.6076L38.0977 47.817L38.3313 48.0776ZM45.9986 48.0776L46.2322 47.817L45.9986 47.6075L45.7649 47.817L45.9986 48.0776ZM53.6646 48.0776L53.8984 47.8171L53.6646 47.6072L53.4308 47.8171L53.6646 48.0776ZM61.3291 48.0776L61.5626 47.8168L61.3288 47.6075L61.0953 47.8171L61.3291 48.0776ZM68.9964 48.0776L69.2299 47.8168L68.9964 47.6078L68.763 47.8168L68.9964 48.0776ZM76.6639 48.0776L76.8977 47.8171L76.6642 47.6075L76.4304 47.8168L76.6639 48.0776ZM84.3284 48.0776L84.5613 47.8163L84.3276 47.608L84.0946 47.8171L84.3284 48.0776ZM86.2459 49.2175H86.5959V48.9708L86.3635 48.8879L86.2459 49.2175ZM86.2459 84.0449V84.3949H86.5959V84.0449H86.2459ZM55.5793 84.0449V83.6949H55.2293V84.0449H55.5793ZM91.2135 49.077C91.914 48.672 92.3457 47.9248 92.3457 47.1148H91.6457C91.6457 47.6747 91.3475 48.191 90.8632 48.471L91.2135 49.077ZM92.3457 47.1148V40.0105H91.6457V47.1148H92.3457ZM92.3457 40.0105C92.3457 40.0173 92.3454 40.0219 92.3453 40.0231C92.3453 40.0237 92.3452 40.0238 92.3457 40.0188C92.3463 40.0123 92.3486 39.9892 92.3486 39.9627H91.6486C91.6486 39.9531 91.6494 39.9461 91.6486 39.9555C91.6483 39.9584 91.6476 39.9663 91.647 39.9747C91.6464 39.9836 91.6457 39.996 91.6457 40.0105H92.3457ZM92.3486 39.9627C92.3486 39.5581 92.2423 39.1778 92.0565 38.8477L91.4465 39.191C91.5752 39.4197 91.6486 39.6823 91.6486 39.9627H92.3486ZM92.0645 38.8628L86.5589 27.8544L85.9328 28.1675L91.4385 39.1759L92.0645 38.8628ZM86.5959 28.011V20.797H85.8959V28.011H86.5959ZM86.5959 20.797C86.5959 19.5454 85.583 18.5309 84.3284 18.5309V19.2309C85.1963 19.2309 85.8959 19.9319 85.8959 20.797H86.5959ZM84.3284 18.5309H46.0196V19.2309H84.3284V18.5309ZM46.0196 18.5309H7.66744V19.2309H46.0196V18.5309ZM7.66744 18.5309C6.41595 18.5309 5.39982 19.5449 5.39982 20.797H6.09982C6.09982 19.9321 6.80186 19.2309 7.66744 19.2309V18.5309ZM5.39982 20.797V28.011H6.09982V20.797H5.39982ZM5.43675 27.8545L-0.109483 38.9498L0.516649 39.2628L6.06288 28.1675L5.43675 27.8545ZM-0.106048 38.9431C-0.126848 38.9826 -0.145169 39.0255 -0.153657 39.0444L0.484994 39.331C0.501663 39.2938 0.505983 39.2832 0.513213 39.2695L-0.106048 38.9431ZM-0.152208 39.0412C-0.162936 39.0645 -0.174451 39.0911 -0.184734 39.1177L0.468274 39.3698C0.472008 39.3602 0.477383 39.3475 0.483546 39.3342L-0.152208 39.0412ZM-0.179854 39.1057C-0.202688 39.1589 -0.220712 39.2117 -0.234156 39.2508L0.427853 39.4783C0.44244 39.4358 0.452447 39.4073 0.463395 39.3818L-0.179854 39.1057ZM-0.238027 39.2627C-0.243246 39.2799 -0.249513 39.3003 -0.255869 39.322L0.415785 39.5192C0.420929 39.5016 0.425802 39.4858 0.431724 39.4663L-0.238027 39.2627ZM-0.25387 39.3154C-0.273132 39.3766 -0.288781 39.4378 -0.301062 39.4988L0.38515 39.637C0.392634 39.5999 0.402141 39.5627 0.413786 39.5257L-0.25387 39.3154ZM-0.296853 39.4805C-0.306568 39.5181 -0.310468 39.5555 -0.310738 39.5576L0.383685 39.6458C0.383907 39.644 0.384135 39.6422 0.384282 39.641C0.384451 39.6397 0.384566 39.6388 0.384665 39.638C0.384868 39.6365 0.384885 39.6364 0.384776 39.6371C0.384577 39.6384 0.383502 39.6455 0.380941 39.6554L-0.296853 39.4805ZM-0.305835 39.5287C-0.3186 39.5886 -0.327167 39.6462 -0.333617 39.7014L0.361642 39.7827C0.366333 39.7426 0.371781 39.7075 0.378782 39.6747L-0.305835 39.5287ZM-0.333724 39.7023C-0.335487 39.7177 -0.337226 39.7347 -0.338754 39.7519L0.358514 39.8137C0.359501 39.8026 0.360637 39.7915 0.361749 39.7818L-0.333724 39.7023ZM-0.338405 39.7482C-0.345066 39.8153 -0.348566 39.8831 -0.348566 39.9499H0.351434C0.351434 39.9072 0.353685 39.8625 0.358165 39.8174L-0.338405 39.7482ZM-0.348566 39.9499C-0.348566 39.9499 -0.348566 39.95 -0.348566 39.95C-0.348566 39.95 -0.348566 39.95 -0.348566 39.95C-0.348566 39.95 -0.348566 39.95 -0.348566 39.95C-0.348566 39.95 -0.348566 39.95 -0.348566 39.95C-0.348566 39.95 -0.348566 39.9501 -0.348566 39.9501C-0.348566 39.9501 -0.348566 39.9501 -0.348566 39.9501C-0.348566 39.9501 -0.348566 39.9501 -0.348566 39.9501C-0.348566 39.9501 -0.348566 39.9501 -0.348566 39.9501C-0.348566 39.9501 -0.348566 39.9501 -0.348566 39.9502C-0.348566 39.9502 -0.348566 39.9502 -0.348566 39.9502C-0.348566 39.9502 -0.348566 39.9502 -0.348566 39.9502C-0.348566 39.9502 -0.348566 39.9502 -0.348566 39.9502C-0.348566 39.9502 -0.348566 39.9502 -0.348566 39.9503C-0.348566 39.9503 -0.348566 39.9503 -0.348566 39.9503C-0.348566 39.9503 -0.348566 39.9503 -0.348566 39.9503C-0.348566 39.9503 -0.348566 39.9503 -0.348566 39.9503C-0.348566 39.9503 -0.348566 39.9503 -0.348566 39.9503C-0.348566 39.9504 -0.348566 39.9504 -0.348566 39.9504C-0.348566 39.9504 -0.348566 39.9504 -0.348566 39.9504C-0.348566 39.9504 -0.348566 39.9504 -0.348566 39.9504C-0.348566 39.9504 -0.348566 39.9504 -0.348566 39.9504C-0.348566 39.9505 -0.348566 39.9505 -0.348566 39.9505C-0.348566 39.9505 -0.348566 39.9505 -0.348566 39.9505C-0.348566 39.9505 -0.348566 39.9505 -0.348566 39.9505C-0.348566 39.9505 -0.348566 39.9505 -0.348566 39.9505C-0.348566 39.9506 -0.348566 39.9506 -0.348566 39.9506C-0.348566 39.9506 -0.348566 39.9506 -0.348566 39.9506C-0.348566 39.9506 -0.348566 39.9506 -0.348566 39.9506C-0.348566 39.9506 -0.348566 39.9506 -0.348566 39.9506C-0.348566 39.9506 -0.348566 39.9507 -0.348566 39.9507C-0.348566 39.9507 -0.348566 39.9507 -0.348566 39.9507C-0.348566 39.9507 -0.348566 39.9507 -0.348566 39.9507C-0.348566 39.9507 -0.348566 39.9507 -0.348566 39.9507C-0.348566 39.9507 -0.348566 39.9508 -0.348566 39.9508C-0.348566 39.9508 -0.348566 39.9508 -0.348566 39.9508C-0.348566 39.9508 -0.348566 39.9508 -0.348566 39.9508C-0.348566 39.9508 -0.348566 39.9508 -0.348566 39.9508C-0.348566 39.9508 -0.348566 39.9509 -0.348566 39.9509C-0.348566 39.9509 -0.348566 39.9509 -0.348566 39.9509C-0.348566 39.9509 -0.348566 39.9509 -0.348566 39.9509C-0.348566 39.9509 -0.348566 39.9509 -0.348566 39.9509C-0.348566 39.9509 -0.348566 39.9509 -0.348566 39.951C-0.348566 39.951 -0.348566 39.951 -0.348566 39.951C-0.348566 39.951 -0.348566 39.951 -0.348566 39.951C-0.348566 39.951 -0.348566 39.951 -0.348566 39.951C-0.348566 39.951 -0.348566 39.951 -0.348566 39.9511C-0.348566 39.9511 -0.348566 39.9511 -0.348566 39.9511C-0.348566 39.9511 -0.348566 39.9511 -0.348566 39.9511C-0.348566 39.9511 -0.348566 39.9511 -0.348566 39.9511C-0.348566 39.9511 -0.348566 39.9511 -0.348566 39.9512C-0.348566 39.9512 -0.348566 39.9512 -0.348566 39.9512C-0.348566 39.9512 -0.348566 39.9512 -0.348566 39.9512C-0.348566 39.9512 -0.348566 39.9512 -0.348566 39.9512C-0.348566 39.9512 -0.348566 39.9512 -0.348566 39.9513C-0.348566 39.9513 -0.348566 39.9513 -0.348566 39.9513C-0.348566 39.9513 -0.348566 39.9513 -0.348566 39.9513C-0.348566 39.9513 -0.348566 39.9513 -0.348566 39.9513C-0.348566 39.9513 -0.348566 39.9513 -0.348566 39.9513C-0.348566 39.9514 -0.348566 39.9514 -0.348566 39.9514C-0.348566 39.9514 -0.348566 39.9514 -0.348566 39.9514C-0.348566 39.9514 -0.348566 39.9514 -0.348566 39.9514C-0.348566 39.9514 -0.348566 39.9514 -0.348566 39.9514C-0.348566 39.9515 -0.348566 39.9515 -0.348566 39.9515C-0.348566 39.9515 -0.348566 39.9515 -0.348566 39.9515C-0.348566 39.9515 -0.348566 39.9515 -0.348566 39.9515C-0.348566 39.9515 -0.348566 39.9515 -0.348566 39.9515C-0.348566 39.9516 -0.348566 39.9516 -0.348566 39.9516C-0.348566 39.9516 -0.348566 39.9516 -0.348566 39.9516C-0.348566 39.9516 -0.348566 39.9516 -0.348566 39.9516C-0.348566 39.9516 -0.348566 39.9516 -0.348566 39.9516C-0.348566 39.9516 -0.348566 39.9517 -0.348566 39.9517C-0.348566 39.9517 -0.348566 39.9517 -0.348566 39.9517C-0.348566 39.9517 -0.348566 39.9517 -0.348566 39.9517C-0.348566 39.9517 -0.348566 39.9517 -0.348566 39.9517C-0.348566 39.9517 -0.348566 39.9518 -0.348566 39.9518C-0.348566 39.9518 -0.348566 39.9518 -0.348566 39.9518C-0.348566 39.9518 -0.348566 39.9518 -0.348566 39.9518C-0.348566 39.9518 -0.348566 39.9518 -0.348566 39.9518C-0.348566 39.9518 -0.348566 39.9519 -0.348566 39.9519C-0.348566 39.9519 -0.348566 39.9519 -0.348566 39.9519C-0.348566 39.9519 -0.348566 39.9519 -0.348566 39.9519C-0.348566 39.9519 -0.348566 39.9519 -0.348566 39.9519C-0.348566 39.9519 -0.348566 39.952 -0.348566 39.952C-0.348566 39.952 -0.348566 39.952 -0.348566 39.952C-0.348566 39.952 -0.348566 39.952 -0.348566 39.952C-0.348566 39.952 -0.348566 39.952 -0.348566 39.952C-0.348566 39.952 -0.348566 39.952 -0.348566 39.9521C-0.348566 39.9521 -0.348566 39.9521 -0.348566 39.9521C-0.348566 39.9521 -0.348566 39.9521 -0.348566 39.9521C-0.348566 39.9521 -0.348566 39.9521 -0.348566 39.9521C-0.348566 39.9521 -0.348566 39.9521 -0.348566 39.9522C-0.348566 39.9522 -0.348566 39.9522 -0.348566 39.9522C-0.348566 39.9522 -0.348566 39.9522 -0.348566 39.9522C-0.348566 39.9522 -0.348566 39.9522 -0.348566 39.9522C-0.348566 39.9522 -0.348566 39.9522 -0.348566 39.9523C-0.348566 39.9523 -0.348566 39.9523 -0.348566 39.9523C-0.348566 39.9523 -0.348566 39.9523 -0.348566 39.9523C-0.348566 39.9523 -0.348566 39.9523 -0.348566 39.9523C-0.348566 39.9523 -0.348566 39.9523 -0.348566 39.9524C-0.348566 39.9524 -0.348566 39.9524 -0.348566 39.9524C-0.348566 39.9524 -0.348566 39.9524 -0.348566 39.9524C-0.348566 39.9524 -0.348566 39.9524 -0.348566 39.9524C-0.348566 39.9524 -0.348566 39.9524 -0.348566 39.9524C-0.348566 39.9525 -0.348566 39.9525 -0.348566 39.9525C-0.348566 39.9525 -0.348566 39.9525 -0.348566 39.9525C-0.348566 39.9525 -0.348566 39.9525 -0.348566 39.9525C-0.348566 39.9525 -0.348566 39.9525 -0.348566 39.9525C-0.348566 39.9526 -0.348566 39.9526 -0.348566 39.9526C-0.348566 39.9526 -0.348566 39.9526 -0.348566 39.9526C-0.348566 39.9526 -0.348566 39.9526 -0.348566 39.9526C-0.348566 39.9526 -0.348566 39.9526 -0.348566 39.9526C-0.348566 39.9527 -0.348566 39.9527 -0.348566 39.9527C-0.348566 39.9527 -0.348566 39.9527 -0.348566 39.9527C-0.348566 39.9527 -0.348566 39.9527 -0.348566 39.9527C-0.348566 39.9527 -0.348566 39.9527 -0.348566 39.9527C-0.348566 39.9528 -0.348566 39.9528 -0.348566 39.9528C-0.348566 39.9528 -0.348566 39.9528 -0.348566 39.9528C-0.348566 39.9528 -0.348566 39.9528 -0.348566 39.9528C-0.348566 39.9528 -0.348566 39.9528 -0.348566 39.9528C-0.348566 39.9529 -0.348566 39.9529 -0.348566 39.9529C-0.348566 39.9529 -0.348566 39.9529 -0.348566 39.9529C-0.348566 39.9529 -0.348566 39.9529 -0.348566 39.9529C-0.348566 39.9529 -0.348566 39.9529 -0.348566 39.9529C-0.348566 39.9529 -0.348566 39.953 -0.348566 39.953C-0.348566 39.953 -0.348566 39.953 -0.348566 39.953C-0.348566 39.953 -0.348566 39.953 -0.348566 39.953C-0.348566 39.953 -0.348566 39.953 -0.348566 39.953C-0.348566 39.953 -0.348566 39.9531 -0.348566 39.9531C-0.348566 39.9531 -0.348566 39.9531 -0.348566 39.9531C-0.348566 39.9531 -0.348566 39.9531 -0.348566 39.9531C-0.348566 39.9531 -0.348566 39.9531 -0.348566 39.9531C-0.348566 39.9531 -0.348566 39.9532 -0.348566 39.9532C-0.348566 39.9532 -0.348566 39.9532 -0.348566 39.9532C-0.348566 39.9532 -0.348566 39.9532 -0.348566 39.9532C-0.348566 39.9532 -0.348566 39.9532 -0.348566 39.9532C-0.348566 39.9532 -0.348566 39.9533 -0.348566 39.9533C-0.348566 39.9533 -0.348566 39.9533 -0.348566 39.9533C-0.348566 39.9533 -0.348566 39.9533 -0.348566 39.9533C-0.348566 39.9533 -0.348566 39.9533 -0.348566 39.9533C-0.348566 39.9533 -0.348566 39.9534 -0.348566 39.9534C-0.348566 39.9534 -0.348566 39.9534 -0.348566 39.9534C-0.348566 39.9534 -0.348566 39.9534 -0.348566 39.9534C-0.348566 39.9534 -0.348566 39.9534 -0.348566 39.9534C-0.348566 39.9534 -0.348566 39.9534 -0.348566 39.9535C-0.348566 39.9535 -0.348566 39.9535 -0.348566 39.9535C-0.348566 39.9535 -0.348566 39.9535 -0.348566 39.9535C-0.348566 39.9535 -0.348566 39.9535 -0.348566 39.9535C-0.348566 39.9535 -0.348566 39.9535 -0.348566 39.9536C-0.348566 39.9536 -0.348566 39.9536 -0.348566 39.9536C-0.348566 39.9536 -0.348566 39.9536 -0.348566 39.9536C-0.348566 39.9536 -0.348566 39.9536 -0.348566 39.9536C-0.348566 39.9536 -0.348566 39.9536 -0.348566 39.9537C-0.348566 39.9537 -0.348566 39.9537 -0.348566 39.9537C-0.348566 39.9537 -0.348566 39.9537 -0.348566 39.9537C-0.348566 39.9537 -0.348566 39.9537 -0.348566 39.9537C-0.348566 39.9537 -0.348566 39.9537 -0.348566 39.9538C-0.348566 39.9538 -0.348566 39.9538 -0.348566 39.9538C-0.348566 39.9538 -0.348566 39.9538 -0.348566 39.9538C-0.348566 39.9538 -0.348566 39.9538 -0.348566 39.9538C-0.348566 39.9538 -0.348566 39.9538 -0.348566 39.9539C-0.348566 39.9539 -0.348566 39.9539 -0.348566 39.9539C-0.348566 39.9539 -0.348566 39.9539 -0.348566 39.9539C-0.348566 39.9539 -0.348566 39.9539 -0.348566 39.9539C-0.348566 39.9539 -0.348566 39.9539 -0.348566 39.954C-0.348566 39.954 -0.348566 39.954 -0.348566 39.954C-0.348566 39.954 -0.348566 39.954 -0.348566 39.954C-0.348566 39.954 -0.348566 39.954 -0.348566 39.954C-0.348566 39.954 -0.348566 39.954 -0.348566 39.9541C-0.348566 39.9541 -0.348566 39.9541 -0.348566 39.9541C-0.348566 39.9541 -0.348566 39.9541 -0.348566 39.9541C-0.348566 39.9541 -0.348566 39.9541 -0.348566 39.9541C-0.348566 39.9541 -0.348566 39.9541 -0.348566 39.9541C-0.348566 39.9542 -0.348566 39.9542 -0.348566 39.9542C-0.348566 39.9542 -0.348566 39.9542 -0.348566 39.9542C-0.348566 39.9542 -0.348566 39.9542 -0.348566 39.9542C-0.348566 39.9542 -0.348566 39.9542 -0.348566 39.9542C-0.348566 39.9543 -0.348566 39.9543 -0.348566 39.9543C-0.348566 39.9543 -0.348566 39.9543 -0.348566 39.9543C-0.348566 39.9543 -0.348566 39.9543 -0.348566 39.9543C-0.348566 39.9543 -0.348566 39.9543 -0.348566 39.9543C-0.348566 39.9544 -0.348566 39.9544 -0.348566 39.9544C-0.348566 39.9544 -0.348566 39.9544 -0.348566 39.9544C-0.348566 39.9544 -0.348566 39.9544 -0.348566 39.9544C-0.348566 39.9544 -0.348566 39.9544 -0.348566 39.9544C-0.348566 39.9545 -0.348566 39.9545 -0.348566 39.9545C-0.348566 39.9545 -0.348566 39.9545 -0.348566 39.9545C-0.348566 39.9545 -0.348566 39.9545 -0.348566 39.9545C-0.348566 39.9545 -0.348566 39.9545 -0.348566 39.9545C-0.348566 39.9546 -0.348566 39.9546 -0.348566 39.9546C-0.348566 39.9546 -0.348566 39.9546 -0.348566 39.9546C-0.348566 39.9546 -0.348566 39.9546 -0.348566 39.9546C-0.348566 39.9546 -0.348566 39.9546 -0.348566 39.9546C-0.348566 39.9547 -0.348566 39.9547 -0.348566 39.9547C-0.348566 39.9547 -0.348566 39.9547 -0.348566 39.9547C-0.348566 39.9547 -0.348566 39.9547 -0.348566 39.9547C-0.348566 39.9547 -0.348566 39.9547 -0.348566 39.9547C-0.348566 39.9548 -0.348566 39.9548 -0.348566 39.9548C-0.348566 39.9548 -0.348566 39.9548 -0.348566 39.9548C-0.348566 39.9548 -0.348566 39.9548 -0.348566 39.9548C-0.348566 39.9548 -0.348566 39.9548 -0.348566 39.9548C-0.348566 39.9548 -0.348566 39.9549 -0.348566 39.9549C-0.348566 39.9549 -0.348566 39.9549 -0.348566 39.9549C-0.348566 39.9549 -0.348566 39.9549 -0.348566 39.9549C-0.348566 39.9549 -0.348566 39.9549 -0.348566 39.9549C-0.348566 39.9549 -0.348566 39.955 -0.348566 39.955C-0.348566 39.955 -0.348566 39.955 -0.348566 39.955C-0.348566 39.955 -0.348566 39.955 -0.348566 39.955C-0.348566 39.955 -0.348566 39.955 -0.348566 39.955C-0.348566 39.955 -0.348566 39.9551 -0.348566 39.9551C-0.348566 39.9551 -0.348566 39.9551 -0.348566 39.9551C-0.348566 39.9551 -0.348566 39.9551 -0.348566 39.9551C-0.348566 39.9551 -0.348566 39.9551 -0.348566 39.9551C-0.348566 39.9551 -0.348566 39.9552 -0.348566 39.9552C-0.348566 39.9552 -0.348566 39.9552 -0.348566 39.9552C-0.348566 39.9552 -0.348566 39.9552 -0.348566 39.9552C-0.348566 39.9552 -0.348566 39.9552 -0.348566 39.9552C-0.348566 39.9552 -0.348566 39.9553 -0.348566 39.9553C-0.348566 39.9553 -0.348566 39.9553 -0.348566 39.9553C-0.348566 39.9553 -0.348566 39.9553 -0.348566 39.9553C-0.348566 39.9553 -0.348566 39.9553 -0.348566 39.9553C-0.348566 39.9553 -0.348566 39.9554 -0.348566 39.9554C-0.348566 39.9554 -0.348566 39.9554 -0.348566 39.9554C-0.348566 39.9554 -0.348566 39.9554 -0.348566 39.9554C-0.348566 39.9554 -0.348566 39.9554 -0.348566 39.9554C-0.348566 39.9554 -0.348566 39.9555 -0.348566 39.9555C-0.348566 39.9555 -0.348566 39.9555 -0.348566 39.9555C-0.348566 39.9555 -0.348566 39.9555 -0.348566 39.9555C-0.348566 39.9555 -0.348566 39.9555 -0.348566 39.9555C-0.348566 39.9555 -0.348566 39.9555 -0.348566 39.9556C-0.348566 39.9556 -0.348566 39.9556 -0.348566 39.9556C-0.348566 39.9556 -0.348566 39.9556 -0.348566 39.9556C-0.348566 39.9556 -0.348566 39.9556 -0.348566 39.9556C-0.348566 39.9556 -0.348566 39.9556 -0.348566 39.9557C-0.348566 39.9557 -0.348566 39.9557 -0.348566 39.9557C-0.348566 39.9557 -0.348566 39.9557 -0.348566 39.9557C-0.348566 39.9557 -0.348566 39.9557 -0.348566 39.9557C-0.348566 39.9557 -0.348566 39.9557 -0.348566 39.9558C-0.348566 39.9558 -0.348566 39.9558 -0.348566 39.9558C-0.348566 39.9558 -0.348566 39.9558 -0.348566 39.9558C-0.348566 39.9558 -0.348566 39.9558 -0.348566 39.9558C-0.348566 39.9558 -0.348566 39.9558 -0.348566 39.9559C-0.348566 39.9559 -0.348566 39.9559 -0.348566 39.9559C-0.348566 39.9559 -0.348566 39.9559 -0.348566 39.9559C-0.348566 39.9559 -0.348566 39.9559 -0.348566 39.9559C-0.348566 39.9559 -0.348566 39.9559 -0.348566 39.956C-0.348566 39.956 -0.348566 39.956 -0.348566 39.956C-0.348566 39.956 -0.348566 39.956 -0.348566 39.956C-0.348566 39.956 -0.348566 39.956 -0.348566 39.956C-0.348566 39.956 -0.348566 39.956 -0.348566 39.9561C-0.348566 39.9561 -0.348566 39.9561 -0.348566 39.9561C-0.348566 39.9561 -0.348566 39.9561 -0.348566 39.9561C-0.348566 39.9561 -0.348566 39.9561 -0.348566 39.9561C-0.348566 39.9561 -0.348566 39.9561 -0.348566 39.9562C-0.348566 39.9562 -0.348566 39.9562 -0.348566 39.9562C-0.348566 39.9562 -0.348566 39.9562 -0.348566 39.9562C-0.348566 39.9562 -0.348566 39.9562 -0.348566 39.9562C-0.348566 39.9562 -0.348566 39.9562 -0.348566 39.9562C-0.348566 39.9563 -0.348566 39.9563 -0.348566 39.9563C-0.348566 39.9563 -0.348566 39.9563 -0.348566 39.9563C-0.348566 39.9563 -0.348566 39.9563 -0.348566 39.9563C-0.348566 39.9563 -0.348566 39.9563 -0.348566 39.9563C-0.348566 39.9564 -0.348566 39.9564 -0.348566 39.9564C-0.348566 39.9564 -0.348566 39.9564 -0.348566 39.9564C-0.348566 39.9564 -0.348566 39.9564 -0.348566 39.9564C-0.348566 39.9564 -0.348566 39.9564 -0.348566 39.9564C-0.348566 39.9565 -0.348566 39.9565 -0.348566 39.9565C-0.348566 39.9565 -0.348566 39.9565 -0.348566 39.9565C-0.348566 39.9565 -0.348566 39.9565 -0.348566 39.9565C-0.348566 39.9565 -0.348566 39.9565 -0.348566 39.9565C-0.348566 39.9566 -0.348566 39.9566 -0.348566 39.9566C-0.348566 39.9566 -0.348566 39.9566 -0.348566 39.9566C-0.348566 39.9566 -0.348566 39.9566 -0.348566 39.9566C-0.348566 39.9566 -0.348566 39.9566 -0.348566 39.9566C-0.348566 39.9567 -0.348566 39.9567 -0.348566 39.9567C-0.348566 39.9567 -0.348566 39.9567 -0.348566 39.9567C-0.348566 39.9567 -0.348566 39.9567 -0.348566 39.9567C-0.348566 39.9567 -0.348566 39.9567 -0.348566 39.9567C-0.348566 39.9568 -0.348566 39.9568 -0.348566 39.9568C-0.348566 39.9568 -0.348566 39.9568 -0.348566 39.9568C-0.348566 39.9568 -0.348566 39.9568 -0.348566 39.9568C-0.348566 39.9568 -0.348566 39.9568 -0.348566 39.9568C-0.348566 39.9569 -0.348566 39.9569 -0.348566 39.9569C-0.348566 39.9569 -0.348566 39.9569 -0.348566 39.9569C-0.348566 39.9569 -0.348566 39.9569 -0.348566 39.9569C-0.348566 39.9569 -0.348566 39.9569 -0.348566 39.9569C-0.348566 39.957 -0.348566 39.957 -0.348566 39.957C-0.348566 39.957 -0.348566 39.957 -0.348566 39.957C-0.348566 39.957 -0.348566 39.957 -0.348566 39.957C-0.348566 39.957 -0.348566 39.957 -0.348566 39.957C-0.348566 39.9571 -0.348566 39.9571 -0.348566 39.9571C-0.348566 39.9571 -0.348566 39.9571 -0.348566 39.9571C-0.348566 39.9571 -0.348566 39.9571 -0.348566 39.9571C-0.348566 39.9571 -0.348566 39.9571 -0.348566 39.9571C-0.348566 39.9571 -0.348566 39.9572 -0.348566 39.9572C-0.348566 39.9572 -0.348566 39.9572 -0.348566 39.9572C-0.348566 39.9572 -0.348566 39.9572 -0.348566 39.9572C-0.348566 39.9572 -0.348566 39.9572 -0.348566 39.9572C-0.348566 39.9572 -0.348566 39.9573 -0.348566 39.9573C-0.348566 39.9573 -0.348566 39.9573 -0.348566 39.9573C-0.348566 39.9573 -0.348566 39.9573 -0.348566 39.9573C-0.348566 39.9573 -0.348566 39.9573 -0.348566 39.9573C-0.348566 39.9573 -0.348566 39.9574 -0.348566 39.9574C-0.348566 39.9574 -0.348566 39.9574 -0.348566 39.9574C-0.348566 39.9574 -0.348566 39.9574 -0.348566 39.9574C-0.348566 39.9574 -0.348566 39.9574 -0.348566 39.9574C-0.348566 39.9574 -0.348566 39.9575 -0.348566 39.9575C-0.348566 39.9575 -0.348566 39.9575 -0.348566 39.9575C-0.348566 39.9575 -0.348566 39.9575 -0.348566 39.9575C-0.348566 39.9575 -0.348566 39.9575 -0.348566 39.9575C-0.348566 39.9575 -0.348566 39.9576 -0.348566 39.9576C-0.348566 39.9576 -0.348566 39.9576 -0.348566 39.9576C-0.348566 39.9576 -0.348566 39.9576 -0.348566 39.9576C-0.348566 39.9576 -0.348566 39.9576 -0.348566 39.9576C-0.348566 39.9576 -0.348566 39.9577 -0.348566 39.9577C-0.348566 39.9577 -0.348566 39.9577 -0.348566 39.9577C-0.348566 39.9577 -0.348566 39.9577 -0.348566 39.9577C-0.348566 39.9577 -0.348566 39.9577 -0.348566 39.9577C-0.348566 39.9577 -0.348566 39.9578 -0.348566 39.9578C-0.348566 39.9578 -0.348566 39.9578 -0.348566 39.9578C-0.348566 39.9578 -0.348566 39.9578 -0.348566 39.9578C-0.348566 39.9578 -0.348566 39.9578 -0.348566 39.9578C-0.348566 39.9578 -0.348566 39.9578 -0.348566 39.9579C-0.348566 39.9579 -0.348566 39.9579 -0.348566 39.9579C-0.348566 39.9579 -0.348566 39.9579 -0.348566 39.9579C-0.348566 39.9579 -0.348566 39.9579 -0.348566 39.9579C-0.348566 39.9579 -0.348566 39.9579 -0.348566 39.958C-0.348566 39.958 -0.348566 39.958 -0.348566 39.958C-0.348566 39.958 -0.348566 39.958 -0.348566 39.958C-0.348566 39.958 -0.348566 39.958 -0.348566 39.958C-0.348566 39.958 -0.348566 39.958 -0.348566 39.9581C-0.348566 39.9581 -0.348566 39.9581 -0.348566 39.9581C-0.348566 39.9581 -0.348566 39.9581 -0.348566 39.9581C-0.348566 39.9581 -0.348566 39.9581 -0.348566 39.9581C-0.348566 39.9581 -0.348566 39.9581 -0.348566 39.9582C-0.348566 39.9582 -0.348566 39.9582 -0.348566 39.9582C-0.348566 39.9582 -0.348566 39.9582 -0.348566 39.9582C-0.348566 39.9582 -0.348566 39.9582 -0.348566 39.9582C-0.348566 39.9582 -0.348566 39.9582 -0.348566 39.9583C-0.348566 39.9583 -0.348566 39.9583 -0.348566 39.9583C-0.348566 39.9583 -0.348566 39.9583 -0.348566 39.9583C-0.348566 39.9583 -0.348566 39.9583 -0.348566 39.9583C-0.348566 39.9583 -0.348566 39.9583 -0.348566 39.9584C-0.348566 39.9584 -0.348566 39.9584 -0.348566 39.9584C-0.348566 39.9584 -0.348566 39.9584 -0.348566 39.9584C-0.348566 39.9584 -0.348566 39.9584 -0.348566 39.9584C-0.348566 39.9584 -0.348566 39.9584 -0.348566 39.9585C-0.348566 39.9585 -0.348566 39.9585 -0.348566 39.9585C-0.348566 39.9585 -0.348566 39.9585 -0.348566 39.9585C-0.348566 39.9585 -0.348566 39.9585 -0.348566 39.9585C-0.348566 39.9585 -0.348566 39.9585 -0.348566 39.9585C-0.348566 39.9586 -0.348566 39.9586 -0.348566 39.9586C-0.348566 39.9586 -0.348566 39.9586 -0.348566 39.9586C-0.348566 39.9586 -0.348566 39.9586 -0.348566 39.9586C-0.348566 39.9586 -0.348566 39.9586 -0.348566 39.9586C-0.348566 39.9587 -0.348566 39.9587 -0.348566 39.9587C-0.348566 39.9587 -0.348566 39.9587 -0.348566 39.9587C-0.348566 39.9587 -0.348566 39.9587 -0.348566 39.9587C-0.348566 39.9587 -0.348566 39.9587 -0.348566 39.9587C-0.348566 39.9588 -0.348566 39.9588 -0.348566 39.9588C-0.348566 39.9588 -0.348566 39.9588 -0.348566 39.9588C-0.348566 39.9588 -0.348566 39.9588 -0.348566 39.9588C-0.348566 39.9588 -0.348566 39.9588 -0.348566 39.9588C-0.348566 39.9589 -0.348566 39.9589 -0.348566 39.9589C-0.348566 39.9589 -0.348566 39.9589 -0.348566 39.9589C-0.348566 39.9589 -0.348566 39.9589 -0.348566 39.9589C-0.348566 39.9589 -0.348566 39.9589 -0.348566 39.9589C-0.348566 39.959 -0.348566 39.959 -0.348566 39.959C-0.348566 39.959 -0.348566 39.959 -0.348566 39.959C-0.348566 39.959 -0.348566 39.959 -0.348566 39.959C-0.348566 39.959 -0.348566 39.959 -0.348566 39.959C-0.348566 39.959 -0.348566 39.9591 -0.348566 39.9591C-0.348566 39.9591 -0.348566 39.9591 -0.348566 39.9591C-0.348566 39.9591 -0.348566 39.9591 -0.348566 39.9591C-0.348566 39.9591 -0.348566 39.9591 -0.348566 39.9591C-0.348566 39.9591 -0.348566 39.9592 -0.348566 39.9592C-0.348566 39.9592 -0.348566 39.9592 -0.348566 39.9592C-0.348566 39.9592 -0.348566 39.9592 -0.348566 39.9592C-0.348566 39.9592 -0.348566 39.9592 -0.348566 39.9592C-0.348566 39.9592 -0.348566 39.9593 -0.348566 39.9593C-0.348566 39.9593 -0.348566 39.9593 -0.348566 39.9593C-0.348566 39.9593 -0.348566 39.9593 -0.348566 39.9593C-0.348566 39.9593 -0.348566 39.9593 -0.348566 39.9593C-0.348566 39.9593 -0.348566 39.9594 -0.348566 39.9594C-0.348566 39.9594 -0.348566 39.9594 -0.348566 39.9594C-0.348566 39.9594 -0.348566 39.9594 -0.348566 39.9594C-0.348566 39.9594 -0.348566 39.9594 -0.348566 39.9594C-0.348566 39.9594 -0.348566 39.9595 -0.348566 39.9595C-0.348566 39.9595 -0.348566 39.9595 -0.348566 39.9595C-0.348566 39.9595 -0.348566 39.9595 -0.348566 39.9595C-0.348566 39.9595 -0.348566 39.9595 -0.348566 39.9595C-0.348566 39.9595 -0.348566 39.9596 -0.348566 39.9596C-0.348566 39.9596 -0.348566 39.9596 -0.348566 39.9596C-0.348566 39.9596 -0.348566 39.9596 -0.348566 39.9596C-0.348566 39.9596 -0.348566 39.9596 -0.348566 39.9596C-0.348566 39.9596 -0.348566 39.9596 -0.348566 39.9597C-0.348566 39.9597 -0.348566 39.9597 -0.348566 39.9597C-0.348566 39.9597 -0.348566 39.9597 -0.348566 39.9597C-0.348566 39.9597 -0.348566 39.9597 -0.348566 39.9597C-0.348566 39.9597 -0.348566 39.9597 -0.348566 39.9598C-0.348566 39.9598 -0.348566 39.9598 -0.348566 39.9598C-0.348566 39.9598 -0.348566 39.9598 -0.348566 39.9598C-0.348566 39.9598 -0.348566 39.9598 -0.348566 39.9598C-0.348566 39.9598 -0.348566 39.9598 -0.348566 39.9599C-0.348566 39.9599 -0.348566 39.9599 -0.348566 39.9599C-0.348566 39.9599 -0.348566 39.9599 -0.348566 39.9599C-0.348566 39.9599 -0.348566 39.9599 -0.348566 39.9599C-0.348566 39.9599 -0.348566 39.9599 -0.348566 39.96C-0.348566 39.96 -0.348566 39.96 -0.348566 39.96C-0.348566 39.96 -0.348566 39.96 -0.348566 39.96C-0.348566 39.96 -0.348566 39.96 -0.348566 39.96C-0.348566 39.96 -0.348566 39.96 -0.348566 39.96C-0.348566 39.9601 -0.348566 39.9601 -0.348566 39.9601C-0.348566 39.9601 -0.348566 39.9601 -0.348566 39.9601C-0.348566 39.9601 -0.348566 39.9601 -0.348566 39.9601C-0.348566 39.9601 -0.348566 39.9601 -0.348566 39.9601C-0.348566 39.9602 -0.348566 39.9602 -0.348566 39.9602C-0.348566 39.9602 -0.348566 39.9602 -0.348566 39.9602C-0.348566 39.9602 -0.348566 39.9602 -0.348566 39.9602C-0.348566 39.9602 -0.348566 39.9602 -0.348566 39.9602C-0.348566 39.9603 -0.348566 39.9603 -0.348566 39.9603C-0.348566 39.9603 -0.348566 39.9603 -0.348566 39.9603C-0.348566 39.9603 -0.348566 39.9603 -0.348566 39.9603C-0.348566 39.9603 -0.348566 39.9603 -0.348566 39.9603C-0.348566 39.9604 -0.348566 39.9604 -0.348566 39.9604C-0.348566 39.9604 -0.348566 39.9604 -0.348566 39.9604C-0.348566 39.9604 -0.348566 39.9604 -0.348566 39.9604C-0.348566 39.9604 -0.348566 39.9604 -0.348566 39.9604C-0.348566 39.9604 -0.348566 39.9605 -0.348566 39.9605C-0.348566 39.9605 -0.348566 39.9605 -0.348566 39.9605C-0.348566 39.9605 -0.348566 39.9605 -0.348566 39.9605C-0.348566 39.9605 -0.348566 39.9605 -0.348566 39.9605C-0.348566 39.9605 -0.348566 39.9606 -0.348566 39.9606C-0.348566 39.9606 -0.348566 39.9606 -0.348566 39.9606C-0.348566 39.9606 -0.348566 39.9606 -0.348566 39.9606C-0.348566 39.9606 -0.348566 39.9606 -0.348566 39.9606C-0.348566 39.9606 -0.348566 39.9607 -0.348566 39.9607C-0.348566 39.9607 -0.348566 39.9607 -0.348566 39.9607C-0.348566 39.9607 -0.348566 39.9607 -0.348566 39.9607C-0.348566 39.9607 -0.348566 39.9607 -0.348566 39.9607C-0.348566 39.9607 -0.348566 39.9608 -0.348566 39.9608C-0.348566 39.9608 -0.348566 39.9608 -0.348566 39.9608C-0.348566 39.9608 -0.348566 39.9608 -0.348566 39.9608C-0.348566 39.9608 -0.348566 39.9608 -0.348566 39.9608C-0.348566 39.9608 -0.348566 39.9608 -0.348566 39.9609C-0.348566 39.9609 -0.348566 39.9609 -0.348566 39.9609C-0.348566 39.9609 -0.348566 39.9609 -0.348566 39.9609C-0.348566 39.9609 -0.348566 39.9609 -0.348566 39.9609C-0.348566 39.9609 -0.348566 39.9609 -0.348566 39.961C-0.348566 39.961 -0.348566 39.961 -0.348566 39.961C-0.348566 39.961 -0.348566 39.961 -0.348566 39.961C-0.348566 39.961 -0.348566 39.961 -0.348566 39.961C-0.348566 39.961 -0.348566 39.961 -0.348566 39.9611C-0.348566 39.9611 -0.348566 39.9611 -0.348566 39.9611C-0.348566 39.9611 -0.348566 39.9611 -0.348566 39.9611C-0.348566 39.9611 -0.348566 39.9611 -0.348566 39.9611C-0.348566 39.9611 -0.348566 39.9611 -0.348566 39.9612C-0.348566 39.9612 -0.348566 39.9612 -0.348566 39.9612C-0.348566 39.9612 -0.348566 39.9612 -0.348566 39.9612C-0.348566 39.9612 -0.348566 39.9612 -0.348566 39.9612C-0.348566 39.9612 -0.348566 39.9612 -0.348566 39.9612C-0.348566 39.9613 -0.348566 39.9613 -0.348566 39.9613C-0.348566 39.9613 -0.348566 39.9613 -0.348566 39.9613C-0.348566 39.9613 -0.348566 39.9613 -0.348566 39.9613C-0.348566 39.9613 -0.348566 39.9613 -0.348566 39.9613C-0.348566 39.9614 -0.348566 39.9614 -0.348566 39.9614C-0.348566 39.9614 -0.348566 39.9614 -0.348566 39.9614C-0.348566 39.9614 -0.348566 39.9614 -0.348566 39.9614C-0.348566 39.9614 -0.348566 39.9614 -0.348566 39.9614C-0.348566 39.9615 -0.348566 39.9615 -0.348566 39.9615C-0.348566 39.9615 -0.348566 39.9615 -0.348566 39.9615C-0.348566 39.9615 -0.348566 39.9615 -0.348566 39.9615C-0.348566 39.9615 -0.348566 39.9615 -0.348566 39.9615C-0.348566 39.9615 -0.348566 39.9616 -0.348566 39.9616C-0.348566 39.9616 -0.348566 39.9616 -0.348566 39.9616C-0.348566 39.9616 -0.348566 39.9616 -0.348566 39.9616C-0.348566 39.9616 -0.348566 39.9616 -0.348566 39.9616C-0.348566 39.9616 -0.348566 39.9617 -0.348566 39.9617C-0.348566 39.9617 -0.348566 39.9617 -0.348566 39.9617C-0.348566 39.9617 -0.348566 39.9617 -0.348566 39.9617C-0.348566 39.9617 -0.348566 39.9617 -0.348566 39.9617C-0.348566 39.9617 -0.348566 39.9618 -0.348566 39.9618C-0.348566 39.9618 -0.348566 39.9618 -0.348566 39.9618C-0.348566 39.9618 -0.348566 39.9618 -0.348566 39.9618C-0.348566 39.9618 -0.348566 39.9618 -0.348566 39.9618C-0.348566 39.9618 -0.348566 39.9618 -0.348566 39.9619C-0.348566 39.9619 -0.348566 39.9619 -0.348566 39.9619C-0.348566 39.9619 -0.348566 39.9619 -0.348566 39.9619C-0.348566 39.9619 -0.348566 39.9619 -0.348566 39.9619C-0.348566 39.9619 -0.348566 39.9619 -0.348566 39.962C-0.348566 39.962 -0.348566 39.962 -0.348566 39.962C-0.348566 39.962 -0.348566 39.962 -0.348566 39.962C-0.348566 39.962 -0.348566 39.962 -0.348566 39.962C-0.348566 39.962 -0.348566 39.962 -0.348566 39.9621C-0.348566 39.9621 -0.348566 39.9621 -0.348566 39.9621C-0.348566 39.9621 -0.348566 39.9621 -0.348566 39.9621C-0.348566 39.9621 -0.348566 39.9621 -0.348566 39.9621C-0.348566 39.9621 -0.348566 39.9621 -0.348566 39.9622C-0.348566 39.9622 -0.348566 39.9622 -0.348566 39.9622C-0.348566 39.9622 -0.348566 39.9622 -0.348566 39.9622C-0.348566 39.9622 -0.348566 39.9622 -0.348566 39.9622C-0.348566 39.9622 -0.348566 39.9622 -0.348566 39.9622C-0.348566 39.9623 -0.348566 39.9623 -0.348566 39.9623C-0.348566 39.9623 -0.348566 39.9623 -0.348566 39.9623C-0.348566 39.9623 -0.348566 39.9623 -0.348566 39.9623C-0.348566 39.9623 -0.348566 39.9623 -0.348566 39.9623C-0.348566 39.9624 -0.348566 39.9624 -0.348566 39.9624C-0.348566 39.9624 -0.348566 39.9624 -0.348566 39.9624C-0.348566 39.9624 -0.348566 39.9624 -0.348566 39.9624C-0.348566 39.9624 -0.348566 39.9624 -0.348566 39.9624C-0.348566 39.9624 -0.348566 39.9625 -0.348566 39.9625C-0.348566 39.9625 -0.348566 39.9625 -0.348566 39.9625C-0.348566 39.9625 -0.348566 39.9625 -0.348566 39.9625H0.351434C0.351434 39.9625 0.351434 39.9625 0.351434 39.9625C0.351434 39.9625 0.351434 39.9625 0.351434 39.9625C0.351434 39.9625 0.351434 39.9624 0.351434 39.9624C0.351434 39.9624 0.351434 39.9624 0.351434 39.9624C0.351434 39.9624 0.351434 39.9624 0.351434 39.9624C0.351434 39.9624 0.351434 39.9624 0.351434 39.9624C0.351434 39.9624 0.351434 39.9624 0.351434 39.9623C0.351434 39.9623 0.351434 39.9623 0.351434 39.9623C0.351434 39.9623 0.351434 39.9623 0.351434 39.9623C0.351434 39.9623 0.351434 39.9623 0.351434 39.9623C0.351434 39.9623 0.351434 39.9623 0.351434 39.9622C0.351434 39.9622 0.351434 39.9622 0.351434 39.9622C0.351434 39.9622 0.351434 39.9622 0.351434 39.9622C0.351434 39.9622 0.351434 39.9622 0.351434 39.9622C0.351434 39.9622 0.351434 39.9622 0.351434 39.9622C0.351434 39.9621 0.351434 39.9621 0.351434 39.9621C0.351434 39.9621 0.351434 39.9621 0.351434 39.9621C0.351434 39.9621 0.351434 39.9621 0.351434 39.9621C0.351434 39.9621 0.351434 39.9621 0.351434 39.9621C0.351434 39.962 0.351434 39.962 0.351434 39.962C0.351434 39.962 0.351434 39.962 0.351434 39.962C0.351434 39.962 0.351434 39.962 0.351434 39.962C0.351434 39.962 0.351434 39.962 0.351434 39.962C0.351434 39.9619 0.351434 39.9619 0.351434 39.9619C0.351434 39.9619 0.351434 39.9619 0.351434 39.9619C0.351434 39.9619 0.351434 39.9619 0.351434 39.9619C0.351434 39.9619 0.351434 39.9619 0.351434 39.9619C0.351434 39.9618 0.351434 39.9618 0.351434 39.9618C0.351434 39.9618 0.351434 39.9618 0.351434 39.9618C0.351434 39.9618 0.351434 39.9618 0.351434 39.9618C0.351434 39.9618 0.351434 39.9618 0.351434 39.9618C0.351434 39.9618 0.351434 39.9617 0.351434 39.9617C0.351434 39.9617 0.351434 39.9617 0.351434 39.9617C0.351434 39.9617 0.351434 39.9617 0.351434 39.9617C0.351434 39.9617 0.351434 39.9617 0.351434 39.9617C0.351434 39.9617 0.351434 39.9616 0.351434 39.9616C0.351434 39.9616 0.351434 39.9616 0.351434 39.9616C0.351434 39.9616 0.351434 39.9616 0.351434 39.9616C0.351434 39.9616 0.351434 39.9616 0.351434 39.9616C0.351434 39.9616 0.351434 39.9615 0.351434 39.9615C0.351434 39.9615 0.351434 39.9615 0.351434 39.9615C0.351434 39.9615 0.351434 39.9615 0.351434 39.9615C0.351434 39.9615 0.351434 39.9615 0.351434 39.9615C0.351434 39.9615 0.351434 39.9615 0.351434 39.9614C0.351434 39.9614 0.351434 39.9614 0.351434 39.9614C0.351434 39.9614 0.351434 39.9614 0.351434 39.9614C0.351434 39.9614 0.351434 39.9614 0.351434 39.9614C0.351434 39.9614 0.351434 39.9614 0.351434 39.9613C0.351434 39.9613 0.351434 39.9613 0.351434 39.9613C0.351434 39.9613 0.351434 39.9613 0.351434 39.9613C0.351434 39.9613 0.351434 39.9613 0.351434 39.9613C0.351434 39.9613 0.351434 39.9613 0.351434 39.9612C0.351434 39.9612 0.351434 39.9612 0.351434 39.9612C0.351434 39.9612 0.351434 39.9612 0.351434 39.9612C0.351434 39.9612 0.351434 39.9612 0.351434 39.9612C0.351434 39.9612 0.351434 39.9612 0.351434 39.9612C0.351434 39.9611 0.351434 39.9611 0.351434 39.9611C0.351434 39.9611 0.351434 39.9611 0.351434 39.9611C0.351434 39.9611 0.351434 39.9611 0.351434 39.9611C0.351434 39.9611 0.351434 39.9611 0.351434 39.9611C0.351434 39.961 0.351434 39.961 0.351434 39.961C0.351434 39.961 0.351434 39.961 0.351434 39.961C0.351434 39.961 0.351434 39.961 0.351434 39.961C0.351434 39.961 0.351434 39.961 0.351434 39.961C0.351434 39.9609 0.351434 39.9609 0.351434 39.9609C0.351434 39.9609 0.351434 39.9609 0.351434 39.9609C0.351434 39.9609 0.351434 39.9609 0.351434 39.9609C0.351434 39.9609 0.351434 39.9609 0.351434 39.9609C0.351434 39.9608 0.351434 39.9608 0.351434 39.9608C0.351434 39.9608 0.351434 39.9608 0.351434 39.9608C0.351434 39.9608 0.351434 39.9608 0.351434 39.9608C0.351434 39.9608 0.351434 39.9608 0.351434 39.9608C0.351434 39.9608 0.351434 39.9607 0.351434 39.9607C0.351434 39.9607 0.351434 39.9607 0.351434 39.9607C0.351434 39.9607 0.351434 39.9607 0.351434 39.9607C0.351434 39.9607 0.351434 39.9607 0.351434 39.9607C0.351434 39.9607 0.351434 39.9606 0.351434 39.9606C0.351434 39.9606 0.351434 39.9606 0.351434 39.9606C0.351434 39.9606 0.351434 39.9606 0.351434 39.9606C0.351434 39.9606 0.351434 39.9606 0.351434 39.9606C0.351434 39.9606 0.351434 39.9605 0.351434 39.9605C0.351434 39.9605 0.351434 39.9605 0.351434 39.9605C0.351434 39.9605 0.351434 39.9605 0.351434 39.9605C0.351434 39.9605 0.351434 39.9605 0.351434 39.9605C0.351434 39.9605 0.351434 39.9604 0.351434 39.9604C0.351434 39.9604 0.351434 39.9604 0.351434 39.9604C0.351434 39.9604 0.351434 39.9604 0.351434 39.9604C0.351434 39.9604 0.351434 39.9604 0.351434 39.9604C0.351434 39.9604 0.351434 39.9604 0.351434 39.9603C0.351434 39.9603 0.351434 39.9603 0.351434 39.9603C0.351434 39.9603 0.351434 39.9603 0.351434 39.9603C0.351434 39.9603 0.351434 39.9603 0.351434 39.9603C0.351434 39.9603 0.351434 39.9603 0.351434 39.9602C0.351434 39.9602 0.351434 39.9602 0.351434 39.9602C0.351434 39.9602 0.351434 39.9602 0.351434 39.9602C0.351434 39.9602 0.351434 39.9602 0.351434 39.9602C0.351434 39.9602 0.351434 39.9602 0.351434 39.9601C0.351434 39.9601 0.351434 39.9601 0.351434 39.9601C0.351434 39.9601 0.351434 39.9601 0.351434 39.9601C0.351434 39.9601 0.351434 39.9601 0.351434 39.9601C0.351434 39.9601 0.351434 39.9601 0.351434 39.96C0.351434 39.96 0.351434 39.96 0.351434 39.96C0.351434 39.96 0.351434 39.96 0.351434 39.96C0.351434 39.96 0.351434 39.96 0.351434 39.96C0.351434 39.96 0.351434 39.96 0.351434 39.96C0.351434 39.9599 0.351434 39.9599 0.351434 39.9599C0.351434 39.9599 0.351434 39.9599 0.351434 39.9599C0.351434 39.9599 0.351434 39.9599 0.351434 39.9599C0.351434 39.9599 0.351434 39.9599 0.351434 39.9599C0.351434 39.9598 0.351434 39.9598 0.351434 39.9598C0.351434 39.9598 0.351434 39.9598 0.351434 39.9598C0.351434 39.9598 0.351434 39.9598 0.351434 39.9598C0.351434 39.9598 0.351434 39.9598 0.351434 39.9598C0.351434 39.9597 0.351434 39.9597 0.351434 39.9597C0.351434 39.9597 0.351434 39.9597 0.351434 39.9597C0.351434 39.9597 0.351434 39.9597 0.351434 39.9597C0.351434 39.9597 0.351434 39.9597 0.351434 39.9597C0.351434 39.9596 0.351434 39.9596 0.351434 39.9596C0.351434 39.9596 0.351434 39.9596 0.351434 39.9596C0.351434 39.9596 0.351434 39.9596 0.351434 39.9596C0.351434 39.9596 0.351434 39.9596 0.351434 39.9596C0.351434 39.9596 0.351434 39.9595 0.351434 39.9595C0.351434 39.9595 0.351434 39.9595 0.351434 39.9595C0.351434 39.9595 0.351434 39.9595 0.351434 39.9595C0.351434 39.9595 0.351434 39.9595 0.351434 39.9595C0.351434 39.9595 0.351434 39.9594 0.351434 39.9594C0.351434 39.9594 0.351434 39.9594 0.351434 39.9594C0.351434 39.9594 0.351434 39.9594 0.351434 39.9594C0.351434 39.9594 0.351434 39.9594 0.351434 39.9594C0.351434 39.9594 0.351434 39.9593 0.351434 39.9593C0.351434 39.9593 0.351434 39.9593 0.351434 39.9593C0.351434 39.9593 0.351434 39.9593 0.351434 39.9593C0.351434 39.9593 0.351434 39.9593 0.351434 39.9593C0.351434 39.9593 0.351434 39.9592 0.351434 39.9592C0.351434 39.9592 0.351434 39.9592 0.351434 39.9592C0.351434 39.9592 0.351434 39.9592 0.351434 39.9592C0.351434 39.9592 0.351434 39.9592 0.351434 39.9592C0.351434 39.9592 0.351434 39.9591 0.351434 39.9591C0.351434 39.9591 0.351434 39.9591 0.351434 39.9591C0.351434 39.9591 0.351434 39.9591 0.351434 39.9591C0.351434 39.9591 0.351434 39.9591 0.351434 39.9591C0.351434 39.9591 0.351434 39.959 0.351434 39.959C0.351434 39.959 0.351434 39.959 0.351434 39.959C0.351434 39.959 0.351434 39.959 0.351434 39.959C0.351434 39.959 0.351434 39.959 0.351434 39.959C0.351434 39.959 0.351434 39.959 0.351434 39.9589C0.351434 39.9589 0.351434 39.9589 0.351434 39.9589C0.351434 39.9589 0.351434 39.9589 0.351434 39.9589C0.351434 39.9589 0.351434 39.9589 0.351434 39.9589C0.351434 39.9589 0.351434 39.9589 0.351434 39.9588C0.351434 39.9588 0.351434 39.9588 0.351434 39.9588C0.351434 39.9588 0.351434 39.9588 0.351434 39.9588C0.351434 39.9588 0.351434 39.9588 0.351434 39.9588C0.351434 39.9588 0.351434 39.9588 0.351434 39.9587C0.351434 39.9587 0.351434 39.9587 0.351434 39.9587C0.351434 39.9587 0.351434 39.9587 0.351434 39.9587C0.351434 39.9587 0.351434 39.9587 0.351434 39.9587C0.351434 39.9587 0.351434 39.9587 0.351434 39.9586C0.351434 39.9586 0.351434 39.9586 0.351434 39.9586C0.351434 39.9586 0.351434 39.9586 0.351434 39.9586C0.351434 39.9586 0.351434 39.9586 0.351434 39.9586C0.351434 39.9586 0.351434 39.9586 0.351434 39.9585C0.351434 39.9585 0.351434 39.9585 0.351434 39.9585C0.351434 39.9585 0.351434 39.9585 0.351434 39.9585C0.351434 39.9585 0.351434 39.9585 0.351434 39.9585C0.351434 39.9585 0.351434 39.9585 0.351434 39.9585C0.351434 39.9584 0.351434 39.9584 0.351434 39.9584C0.351434 39.9584 0.351434 39.9584 0.351434 39.9584C0.351434 39.9584 0.351434 39.9584 0.351434 39.9584C0.351434 39.9584 0.351434 39.9584 0.351434 39.9584C0.351434 39.9583 0.351434 39.9583 0.351434 39.9583C0.351434 39.9583 0.351434 39.9583 0.351434 39.9583C0.351434 39.9583 0.351434 39.9583 0.351434 39.9583C0.351434 39.9583 0.351434 39.9583 0.351434 39.9583C0.351434 39.9582 0.351434 39.9582 0.351434 39.9582C0.351434 39.9582 0.351434 39.9582 0.351434 39.9582C0.351434 39.9582 0.351434 39.9582 0.351434 39.9582C0.351434 39.9582 0.351434 39.9582 0.351434 39.9582C0.351434 39.9581 0.351434 39.9581 0.351434 39.9581C0.351434 39.9581 0.351434 39.9581 0.351434 39.9581C0.351434 39.9581 0.351434 39.9581 0.351434 39.9581C0.351434 39.9581 0.351434 39.9581 0.351434 39.9581C0.351434 39.958 0.351434 39.958 0.351434 39.958C0.351434 39.958 0.351434 39.958 0.351434 39.958C0.351434 39.958 0.351434 39.958 0.351434 39.958C0.351434 39.958 0.351434 39.958 0.351434 39.958C0.351434 39.9579 0.351434 39.9579 0.351434 39.9579C0.351434 39.9579 0.351434 39.9579 0.351434 39.9579C0.351434 39.9579 0.351434 39.9579 0.351434 39.9579C0.351434 39.9579 0.351434 39.9579 0.351434 39.9579C0.351434 39.9578 0.351434 39.9578 0.351434 39.9578C0.351434 39.9578 0.351434 39.9578 0.351434 39.9578C0.351434 39.9578 0.351434 39.9578 0.351434 39.9578C0.351434 39.9578 0.351434 39.9578 0.351434 39.9578C0.351434 39.9578 0.351434 39.9577 0.351434 39.9577C0.351434 39.9577 0.351434 39.9577 0.351434 39.9577C0.351434 39.9577 0.351434 39.9577 0.351434 39.9577C0.351434 39.9577 0.351434 39.9577 0.351434 39.9577C0.351434 39.9577 0.351434 39.9576 0.351434 39.9576C0.351434 39.9576 0.351434 39.9576 0.351434 39.9576C0.351434 39.9576 0.351434 39.9576 0.351434 39.9576C0.351434 39.9576 0.351434 39.9576 0.351434 39.9576C0.351434 39.9576 0.351434 39.9575 0.351434 39.9575C0.351434 39.9575 0.351434 39.9575 0.351434 39.9575C0.351434 39.9575 0.351434 39.9575 0.351434 39.9575C0.351434 39.9575 0.351434 39.9575 0.351434 39.9575C0.351434 39.9575 0.351434 39.9574 0.351434 39.9574C0.351434 39.9574 0.351434 39.9574 0.351434 39.9574C0.351434 39.9574 0.351434 39.9574 0.351434 39.9574C0.351434 39.9574 0.351434 39.9574 0.351434 39.9574C0.351434 39.9574 0.351434 39.9573 0.351434 39.9573C0.351434 39.9573 0.351434 39.9573 0.351434 39.9573C0.351434 39.9573 0.351434 39.9573 0.351434 39.9573C0.351434 39.9573 0.351434 39.9573 0.351434 39.9573C0.351434 39.9573 0.351434 39.9572 0.351434 39.9572C0.351434 39.9572 0.351434 39.9572 0.351434 39.9572C0.351434 39.9572 0.351434 39.9572 0.351434 39.9572C0.351434 39.9572 0.351434 39.9572 0.351434 39.9572C0.351434 39.9572 0.351434 39.9571 0.351434 39.9571C0.351434 39.9571 0.351434 39.9571 0.351434 39.9571C0.351434 39.9571 0.351434 39.9571 0.351434 39.9571C0.351434 39.9571 0.351434 39.9571 0.351434 39.9571C0.351434 39.9571 0.351434 39.9571 0.351434 39.957C0.351434 39.957 0.351434 39.957 0.351434 39.957C0.351434 39.957 0.351434 39.957 0.351434 39.957C0.351434 39.957 0.351434 39.957 0.351434 39.957C0.351434 39.957 0.351434 39.957 0.351434 39.9569C0.351434 39.9569 0.351434 39.9569 0.351434 39.9569C0.351434 39.9569 0.351434 39.9569 0.351434 39.9569C0.351434 39.9569 0.351434 39.9569 0.351434 39.9569C0.351434 39.9569 0.351434 39.9569 0.351434 39.9568C0.351434 39.9568 0.351434 39.9568 0.351434 39.9568C0.351434 39.9568 0.351434 39.9568 0.351434 39.9568C0.351434 39.9568 0.351434 39.9568 0.351434 39.9568C0.351434 39.9568 0.351434 39.9568 0.351434 39.9567C0.351434 39.9567 0.351434 39.9567 0.351434 39.9567C0.351434 39.9567 0.351434 39.9567 0.351434 39.9567C0.351434 39.9567 0.351434 39.9567 0.351434 39.9567C0.351434 39.9567 0.351434 39.9567 0.351434 39.9566C0.351434 39.9566 0.351434 39.9566 0.351434 39.9566C0.351434 39.9566 0.351434 39.9566 0.351434 39.9566C0.351434 39.9566 0.351434 39.9566 0.351434 39.9566C0.351434 39.9566 0.351434 39.9566 0.351434 39.9565C0.351434 39.9565 0.351434 39.9565 0.351434 39.9565C0.351434 39.9565 0.351434 39.9565 0.351434 39.9565C0.351434 39.9565 0.351434 39.9565 0.351434 39.9565C0.351434 39.9565 0.351434 39.9565 0.351434 39.9564C0.351434 39.9564 0.351434 39.9564 0.351434 39.9564C0.351434 39.9564 0.351434 39.9564 0.351434 39.9564C0.351434 39.9564 0.351434 39.9564 0.351434 39.9564C0.351434 39.9564 0.351434 39.9564 0.351434 39.9563C0.351434 39.9563 0.351434 39.9563 0.351434 39.9563C0.351434 39.9563 0.351434 39.9563 0.351434 39.9563C0.351434 39.9563 0.351434 39.9563 0.351434 39.9563C0.351434 39.9563 0.351434 39.9563 0.351434 39.9562C0.351434 39.9562 0.351434 39.9562 0.351434 39.9562C0.351434 39.9562 0.351434 39.9562 0.351434 39.9562C0.351434 39.9562 0.351434 39.9562 0.351434 39.9562C0.351434 39.9562 0.351434 39.9562 0.351434 39.9562C0.351434 39.9561 0.351434 39.9561 0.351434 39.9561C0.351434 39.9561 0.351434 39.9561 0.351434 39.9561C0.351434 39.9561 0.351434 39.9561 0.351434 39.9561C0.351434 39.9561 0.351434 39.9561 0.351434 39.9561C0.351434 39.956 0.351434 39.956 0.351434 39.956C0.351434 39.956 0.351434 39.956 0.351434 39.956C0.351434 39.956 0.351434 39.956 0.351434 39.956C0.351434 39.956 0.351434 39.956 0.351434 39.956C0.351434 39.9559 0.351434 39.9559 0.351434 39.9559C0.351434 39.9559 0.351434 39.9559 0.351434 39.9559C0.351434 39.9559 0.351434 39.9559 0.351434 39.9559C0.351434 39.9559 0.351434 39.9559 0.351434 39.9559C0.351434 39.9558 0.351434 39.9558 0.351434 39.9558C0.351434 39.9558 0.351434 39.9558 0.351434 39.9558C0.351434 39.9558 0.351434 39.9558 0.351434 39.9558C0.351434 39.9558 0.351434 39.9558 0.351434 39.9558C0.351434 39.9557 0.351434 39.9557 0.351434 39.9557C0.351434 39.9557 0.351434 39.9557 0.351434 39.9557C0.351434 39.9557 0.351434 39.9557 0.351434 39.9557C0.351434 39.9557 0.351434 39.9557 0.351434 39.9557C0.351434 39.9556 0.351434 39.9556 0.351434 39.9556C0.351434 39.9556 0.351434 39.9556 0.351434 39.9556C0.351434 39.9556 0.351434 39.9556 0.351434 39.9556C0.351434 39.9556 0.351434 39.9556 0.351434 39.9556C0.351434 39.9555 0.351434 39.9555 0.351434 39.9555C0.351434 39.9555 0.351434 39.9555 0.351434 39.9555C0.351434 39.9555 0.351434 39.9555 0.351434 39.9555C0.351434 39.9555 0.351434 39.9555 0.351434 39.9555C0.351434 39.9555 0.351434 39.9554 0.351434 39.9554C0.351434 39.9554 0.351434 39.9554 0.351434 39.9554C0.351434 39.9554 0.351434 39.9554 0.351434 39.9554C0.351434 39.9554 0.351434 39.9554 0.351434 39.9554C0.351434 39.9554 0.351434 39.9553 0.351434 39.9553C0.351434 39.9553 0.351434 39.9553 0.351434 39.9553C0.351434 39.9553 0.351434 39.9553 0.351434 39.9553C0.351434 39.9553 0.351434 39.9553 0.351434 39.9553C0.351434 39.9553 0.351434 39.9552 0.351434 39.9552C0.351434 39.9552 0.351434 39.9552 0.351434 39.9552C0.351434 39.9552 0.351434 39.9552 0.351434 39.9552C0.351434 39.9552 0.351434 39.9552 0.351434 39.9552C0.351434 39.9552 0.351434 39.9551 0.351434 39.9551C0.351434 39.9551 0.351434 39.9551 0.351434 39.9551C0.351434 39.9551 0.351434 39.9551 0.351434 39.9551C0.351434 39.9551 0.351434 39.9551 0.351434 39.9551C0.351434 39.9551 0.351434 39.955 0.351434 39.955C0.351434 39.955 0.351434 39.955 0.351434 39.955C0.351434 39.955 0.351434 39.955 0.351434 39.955C0.351434 39.955 0.351434 39.955 0.351434 39.955C0.351434 39.955 0.351434 39.9549 0.351434 39.9549C0.351434 39.9549 0.351434 39.9549 0.351434 39.9549C0.351434 39.9549 0.351434 39.9549 0.351434 39.9549C0.351434 39.9549 0.351434 39.9549 0.351434 39.9549C0.351434 39.9549 0.351434 39.9548 0.351434 39.9548C0.351434 39.9548 0.351434 39.9548 0.351434 39.9548C0.351434 39.9548 0.351434 39.9548 0.351434 39.9548C0.351434 39.9548 0.351434 39.9548 0.351434 39.9548C0.351434 39.9548 0.351434 39.9548 0.351434 39.9547C0.351434 39.9547 0.351434 39.9547 0.351434 39.9547C0.351434 39.9547 0.351434 39.9547 0.351434 39.9547C0.351434 39.9547 0.351434 39.9547 0.351434 39.9547C0.351434 39.9547 0.351434 39.9547 0.351434 39.9546C0.351434 39.9546 0.351434 39.9546 0.351434 39.9546C0.351434 39.9546 0.351434 39.9546 0.351434 39.9546C0.351434 39.9546 0.351434 39.9546 0.351434 39.9546C0.351434 39.9546 0.351434 39.9546 0.351434 39.9545C0.351434 39.9545 0.351434 39.9545 0.351434 39.9545C0.351434 39.9545 0.351434 39.9545 0.351434 39.9545C0.351434 39.9545 0.351434 39.9545 0.351434 39.9545C0.351434 39.9545 0.351434 39.9545 0.351434 39.9544C0.351434 39.9544 0.351434 39.9544 0.351434 39.9544C0.351434 39.9544 0.351434 39.9544 0.351434 39.9544C0.351434 39.9544 0.351434 39.9544 0.351434 39.9544C0.351434 39.9544 0.351434 39.9544 0.351434 39.9543C0.351434 39.9543 0.351434 39.9543 0.351434 39.9543C0.351434 39.9543 0.351434 39.9543 0.351434 39.9543C0.351434 39.9543 0.351434 39.9543 0.351434 39.9543C0.351434 39.9543 0.351434 39.9543 0.351434 39.9542C0.351434 39.9542 0.351434 39.9542 0.351434 39.9542C0.351434 39.9542 0.351434 39.9542 0.351434 39.9542C0.351434 39.9542 0.351434 39.9542 0.351434 39.9542C0.351434 39.9542 0.351434 39.9542 0.351434 39.9541C0.351434 39.9541 0.351434 39.9541 0.351434 39.9541C0.351434 39.9541 0.351434 39.9541 0.351434 39.9541C0.351434 39.9541 0.351434 39.9541 0.351434 39.9541C0.351434 39.9541 0.351434 39.9541 0.351434 39.9541C0.351434 39.954 0.351434 39.954 0.351434 39.954C0.351434 39.954 0.351434 39.954 0.351434 39.954C0.351434 39.954 0.351434 39.954 0.351434 39.954C0.351434 39.954 0.351434 39.954 0.351434 39.954C0.351434 39.9539 0.351434 39.9539 0.351434 39.9539C0.351434 39.9539 0.351434 39.9539 0.351434 39.9539C0.351434 39.9539 0.351434 39.9539 0.351434 39.9539C0.351434 39.9539 0.351434 39.9539 0.351434 39.9539C0.351434 39.9538 0.351434 39.9538 0.351434 39.9538C0.351434 39.9538 0.351434 39.9538 0.351434 39.9538C0.351434 39.9538 0.351434 39.9538 0.351434 39.9538C0.351434 39.9538 0.351434 39.9538 0.351434 39.9538C0.351434 39.9537 0.351434 39.9537 0.351434 39.9537C0.351434 39.9537 0.351434 39.9537 0.351434 39.9537C0.351434 39.9537 0.351434 39.9537 0.351434 39.9537C0.351434 39.9537 0.351434 39.9537 0.351434 39.9537C0.351434 39.9536 0.351434 39.9536 0.351434 39.9536C0.351434 39.9536 0.351434 39.9536 0.351434 39.9536C0.351434 39.9536 0.351434 39.9536 0.351434 39.9536C0.351434 39.9536 0.351434 39.9536 0.351434 39.9536C0.351434 39.9535 0.351434 39.9535 0.351434 39.9535C0.351434 39.9535 0.351434 39.9535 0.351434 39.9535C0.351434 39.9535 0.351434 39.9535 0.351434 39.9535C0.351434 39.9535 0.351434 39.9535 0.351434 39.9535C0.351434 39.9534 0.351434 39.9534 0.351434 39.9534C0.351434 39.9534 0.351434 39.9534 0.351434 39.9534C0.351434 39.9534 0.351434 39.9534 0.351434 39.9534C0.351434 39.9534 0.351434 39.9534 0.351434 39.9534C0.351434 39.9534 0.351434 39.9533 0.351434 39.9533C0.351434 39.9533 0.351434 39.9533 0.351434 39.9533C0.351434 39.9533 0.351434 39.9533 0.351434 39.9533C0.351434 39.9533 0.351434 39.9533 0.351434 39.9533C0.351434 39.9533 0.351434 39.9532 0.351434 39.9532C0.351434 39.9532 0.351434 39.9532 0.351434 39.9532C0.351434 39.9532 0.351434 39.9532 0.351434 39.9532C0.351434 39.9532 0.351434 39.9532 0.351434 39.9532C0.351434 39.9532 0.351434 39.9531 0.351434 39.9531C0.351434 39.9531 0.351434 39.9531 0.351434 39.9531C0.351434 39.9531 0.351434 39.9531 0.351434 39.9531C0.351434 39.9531 0.351434 39.9531 0.351434 39.9531C0.351434 39.9531 0.351434 39.953 0.351434 39.953C0.351434 39.953 0.351434 39.953 0.351434 39.953C0.351434 39.953 0.351434 39.953 0.351434 39.953C0.351434 39.953 0.351434 39.953 0.351434 39.953C0.351434 39.953 0.351434 39.9529 0.351434 39.9529C0.351434 39.9529 0.351434 39.9529 0.351434 39.9529C0.351434 39.9529 0.351434 39.9529 0.351434 39.9529C0.351434 39.9529 0.351434 39.9529 0.351434 39.9529C0.351434 39.9529 0.351434 39.9529 0.351434 39.9528C0.351434 39.9528 0.351434 39.9528 0.351434 39.9528C0.351434 39.9528 0.351434 39.9528 0.351434 39.9528C0.351434 39.9528 0.351434 39.9528 0.351434 39.9528C0.351434 39.9528 0.351434 39.9528 0.351434 39.9527C0.351434 39.9527 0.351434 39.9527 0.351434 39.9527C0.351434 39.9527 0.351434 39.9527 0.351434 39.9527C0.351434 39.9527 0.351434 39.9527 0.351434 39.9527C0.351434 39.9527 0.351434 39.9527 0.351434 39.9526C0.351434 39.9526 0.351434 39.9526 0.351434 39.9526C0.351434 39.9526 0.351434 39.9526 0.351434 39.9526C0.351434 39.9526 0.351434 39.9526 0.351434 39.9526C0.351434 39.9526 0.351434 39.9526 0.351434 39.9525C0.351434 39.9525 0.351434 39.9525 0.351434 39.9525C0.351434 39.9525 0.351434 39.9525 0.351434 39.9525C0.351434 39.9525 0.351434 39.9525 0.351434 39.9525C0.351434 39.9525 0.351434 39.9525 0.351434 39.9524C0.351434 39.9524 0.351434 39.9524 0.351434 39.9524C0.351434 39.9524 0.351434 39.9524 0.351434 39.9524C0.351434 39.9524 0.351434 39.9524 0.351434 39.9524C0.351434 39.9524 0.351434 39.9524 0.351434 39.9524C0.351434 39.9523 0.351434 39.9523 0.351434 39.9523C0.351434 39.9523 0.351434 39.9523 0.351434 39.9523C0.351434 39.9523 0.351434 39.9523 0.351434 39.9523C0.351434 39.9523 0.351434 39.9523 0.351434 39.9523C0.351434 39.9522 0.351434 39.9522 0.351434 39.9522C0.351434 39.9522 0.351434 39.9522 0.351434 39.9522C0.351434 39.9522 0.351434 39.9522 0.351434 39.9522C0.351434 39.9522 0.351434 39.9522 0.351434 39.9522C0.351434 39.9521 0.351434 39.9521 0.351434 39.9521C0.351434 39.9521 0.351434 39.9521 0.351434 39.9521C0.351434 39.9521 0.351434 39.9521 0.351434 39.9521C0.351434 39.9521 0.351434 39.9521 0.351434 39.9521C0.351434 39.952 0.351434 39.952 0.351434 39.952C0.351434 39.952 0.351434 39.952 0.351434 39.952C0.351434 39.952 0.351434 39.952 0.351434 39.952C0.351434 39.952 0.351434 39.952 0.351434 39.952C0.351434 39.952 0.351434 39.9519 0.351434 39.9519C0.351434 39.9519 0.351434 39.9519 0.351434 39.9519C0.351434 39.9519 0.351434 39.9519 0.351434 39.9519C0.351434 39.9519 0.351434 39.9519 0.351434 39.9519C0.351434 39.9519 0.351434 39.9518 0.351434 39.9518C0.351434 39.9518 0.351434 39.9518 0.351434 39.9518C0.351434 39.9518 0.351434 39.9518 0.351434 39.9518C0.351434 39.9518 0.351434 39.9518 0.351434 39.9518C0.351434 39.9518 0.351434 39.9517 0.351434 39.9517C0.351434 39.9517 0.351434 39.9517 0.351434 39.9517C0.351434 39.9517 0.351434 39.9517 0.351434 39.9517C0.351434 39.9517 0.351434 39.9517 0.351434 39.9517C0.351434 39.9517 0.351434 39.9516 0.351434 39.9516C0.351434 39.9516 0.351434 39.9516 0.351434 39.9516C0.351434 39.9516 0.351434 39.9516 0.351434 39.9516C0.351434 39.9516 0.351434 39.9516 0.351434 39.9516C0.351434 39.9516 0.351434 39.9516 0.351434 39.9515C0.351434 39.9515 0.351434 39.9515 0.351434 39.9515C0.351434 39.9515 0.351434 39.9515 0.351434 39.9515C0.351434 39.9515 0.351434 39.9515 0.351434 39.9515C0.351434 39.9515 0.351434 39.9515 0.351434 39.9514C0.351434 39.9514 0.351434 39.9514 0.351434 39.9514C0.351434 39.9514 0.351434 39.9514 0.351434 39.9514C0.351434 39.9514 0.351434 39.9514 0.351434 39.9514C0.351434 39.9514 0.351434 39.9514 0.351434 39.9513C0.351434 39.9513 0.351434 39.9513 0.351434 39.9513C0.351434 39.9513 0.351434 39.9513 0.351434 39.9513C0.351434 39.9513 0.351434 39.9513 0.351434 39.9513C0.351434 39.9513 0.351434 39.9513 0.351434 39.9513C0.351434 39.9512 0.351434 39.9512 0.351434 39.9512C0.351434 39.9512 0.351434 39.9512 0.351434 39.9512C0.351434 39.9512 0.351434 39.9512 0.351434 39.9512C0.351434 39.9512 0.351434 39.9512 0.351434 39.9512C0.351434 39.9511 0.351434 39.9511 0.351434 39.9511C0.351434 39.9511 0.351434 39.9511 0.351434 39.9511C0.351434 39.9511 0.351434 39.9511 0.351434 39.9511C0.351434 39.9511 0.351434 39.9511 0.351434 39.9511C0.351434 39.951 0.351434 39.951 0.351434 39.951C0.351434 39.951 0.351434 39.951 0.351434 39.951C0.351434 39.951 0.351434 39.951 0.351434 39.951C0.351434 39.951 0.351434 39.951 0.351434 39.951C0.351434 39.9509 0.351434 39.9509 0.351434 39.9509C0.351434 39.9509 0.351434 39.9509 0.351434 39.9509C0.351434 39.9509 0.351434 39.9509 0.351434 39.9509C0.351434 39.9509 0.351434 39.9509 0.351434 39.9509C0.351434 39.9509 0.351434 39.9508 0.351434 39.9508C0.351434 39.9508 0.351434 39.9508 0.351434 39.9508C0.351434 39.9508 0.351434 39.9508 0.351434 39.9508C0.351434 39.9508 0.351434 39.9508 0.351434 39.9508C0.351434 39.9508 0.351434 39.9507 0.351434 39.9507C0.351434 39.9507 0.351434 39.9507 0.351434 39.9507C0.351434 39.9507 0.351434 39.9507 0.351434 39.9507C0.351434 39.9507 0.351434 39.9507 0.351434 39.9507C0.351434 39.9507 0.351434 39.9506 0.351434 39.9506C0.351434 39.9506 0.351434 39.9506 0.351434 39.9506C0.351434 39.9506 0.351434 39.9506 0.351434 39.9506C0.351434 39.9506 0.351434 39.9506 0.351434 39.9506C0.351434 39.9506 0.351434 39.9506 0.351434 39.9505C0.351434 39.9505 0.351434 39.9505 0.351434 39.9505C0.351434 39.9505 0.351434 39.9505 0.351434 39.9505C0.351434 39.9505 0.351434 39.9505 0.351434 39.9505C0.351434 39.9505 0.351434 39.9505 0.351434 39.9504C0.351434 39.9504 0.351434 39.9504 0.351434 39.9504C0.351434 39.9504 0.351434 39.9504 0.351434 39.9504C0.351434 39.9504 0.351434 39.9504 0.351434 39.9504C0.351434 39.9504 0.351434 39.9504 0.351434 39.9503C0.351434 39.9503 0.351434 39.9503 0.351434 39.9503C0.351434 39.9503 0.351434 39.9503 0.351434 39.9503C0.351434 39.9503 0.351434 39.9503 0.351434 39.9503C0.351434 39.9503 0.351434 39.9503 0.351434 39.9503C0.351434 39.9502 0.351434 39.9502 0.351434 39.9502C0.351434 39.9502 0.351434 39.9502 0.351434 39.9502C0.351434 39.9502 0.351434 39.9502 0.351434 39.9502C0.351434 39.9502 0.351434 39.9502 0.351434 39.9502C0.351434 39.9501 0.351434 39.9501 0.351434 39.9501C0.351434 39.9501 0.351434 39.9501 0.351434 39.9501C0.351434 39.9501 0.351434 39.9501 0.351434 39.9501C0.351434 39.9501 0.351434 39.9501 0.351434 39.9501C0.351434 39.9501 0.351434 39.95 0.351434 39.95C0.351434 39.95 0.351434 39.95 0.351434 39.95C0.351434 39.95 0.351434 39.95 0.351434 39.95C0.351434 39.95 0.351434 39.95 0.351434 39.95C0.351434 39.95 0.351434 39.9499 0.351434 39.9499H-0.348566ZM-0.348566 39.9625V47.1146H0.351434V39.9625H-0.348566ZM-0.348566 47.1146C-0.348566 47.9241 0.0812086 48.6716 0.782201 49.0769L1.13254 48.4708C0.648676 48.1911 0.351434 47.675 0.351434 47.1146H-0.348566ZM0.782269 49.0769C1.10824 49.2653 1.45069 49.42 1.80031 49.5444L2.03493 48.8849C1.72186 48.7735 1.41852 48.6361 1.13248 48.4708L0.782269 49.0769ZM1.56762 49.2146V84.0449H2.26762V49.2146H1.56762ZM1.91762 83.6949C0.666126 83.6949 -0.348566 84.7076 -0.348566 85.9595H0.351434C0.351434 85.0949 1.05204 84.3949 1.91762 84.3949V83.6949ZM-0.348566 85.9595C-0.348566 87.211 0.665442 88.2271 1.91762 88.2271V87.5271C1.05272 87.5271 0.351434 86.825 0.351434 85.9595H-0.348566ZM1.91762 88.2271H3.83381V87.5271H1.91762V88.2271ZM3.83381 88.2271H38.3313V87.5271H3.83381V88.2271ZM38.3313 88.2271H53.6646V87.5271H38.3313V88.2271ZM53.6646 88.2271H88.1635V87.5271H53.6646V88.2271ZM88.1635 88.2271H90.0781V87.5271H88.1635V88.2271ZM90.0781 88.2271C91.3299 88.2271 92.3457 87.2113 92.3457 85.9595H91.6457C91.6457 86.8247 90.9433 87.5271 90.0781 87.5271V88.2271ZM92.3457 85.9595C92.3457 84.7071 91.3292 83.6949 90.0781 83.6949V84.3949C90.944 84.3949 91.6457 85.0951 91.6457 85.9595H92.3457ZM90.4281 84.0449V49.2148H89.7281V84.0449H90.4281ZM90.1955 49.5445C90.5449 49.42 90.8874 49.2655 91.2134 49.0771L90.8632 48.471C90.5773 48.6362 90.2739 48.7735 89.9606 48.8851L90.1955 49.5445ZM84.3286 41.5287C83.0793 41.5287 82.0639 42.5448 82.0639 43.7963H82.7639C82.7639 42.9307 83.4666 42.2287 84.3286 42.2287V41.5287ZM82.0639 43.7963C82.0639 44.66 81.3616 45.3625 80.4962 45.3625V46.0625C81.7479 46.0625 82.7639 45.0469 82.7639 43.7963H82.0639ZM80.4962 45.3625C79.6308 45.3625 78.9286 44.66 78.9286 43.7963H78.2286C78.2286 45.0469 79.2446 46.0625 80.4962 46.0625V45.3625ZM78.9286 43.7963C78.9286 42.5449 77.9132 41.5287 76.664 41.5287V42.2287C77.5259 42.2287 78.2286 42.9307 78.2286 43.7963H78.9286ZM76.664 41.5287C75.4092 41.5287 74.3964 42.5448 74.3964 43.7963H75.0964C75.0964 42.9308 75.7964 42.2287 76.664 42.2287V41.5287ZM74.3964 43.7963C74.3964 44.66 73.6943 45.3625 72.829 45.3625V46.0625C74.0807 46.0625 75.0964 45.0469 75.0964 43.7963H74.3964ZM72.829 45.3625C71.9668 45.3625 71.2642 44.6603 71.2642 43.7963H70.5642C70.5642 45.0466 71.5798 46.0625 72.829 46.0625V45.3625ZM71.2642 43.7963C71.2642 42.5445 70.2484 41.5287 68.9966 41.5287V42.2287C69.8618 42.2287 70.5642 42.9311 70.5642 43.7963H71.2642ZM68.9966 41.5287C67.7448 41.5287 66.729 42.5445 66.729 43.7963H67.429C67.429 42.9311 68.1313 42.2287 68.9966 42.2287V41.5287ZM66.729 43.7963C66.729 44.6603 66.0264 45.3625 65.1644 45.3625V46.0625C66.4134 46.0625 67.429 45.0465 67.429 43.7963H66.729ZM65.1644 45.3625C64.3015 45.3625 63.5968 44.6596 63.5968 43.7963H62.8968C62.8968 45.0472 63.9159 46.0625 65.1644 46.0625V45.3625ZM63.5968 43.7963C63.5968 42.5449 62.5842 41.5287 61.3293 41.5287V42.2287C62.1969 42.2287 62.8968 42.9307 62.8968 43.7963H63.5968ZM61.3293 41.5287C60.08 41.5287 59.0646 42.5448 59.0646 43.7963H59.7646C59.7646 42.9307 60.4673 42.2287 61.3293 42.2287V41.5287ZM59.0646 43.7963C59.0646 44.66 58.3624 45.3625 57.4969 45.3625V46.0625C58.7486 46.0625 59.7646 45.0469 59.7646 43.7963H59.0646ZM57.4969 45.3625C56.6341 45.3625 55.9293 44.6596 55.9293 43.7963H55.2293C55.2293 45.0472 56.2485 46.0625 57.4969 46.0625V45.3625ZM55.9293 43.7963C55.9293 42.5452 54.9169 41.5287 53.6648 41.5287V42.2287C54.5289 42.2287 55.2293 42.9304 55.2293 43.7963H55.9293ZM53.6648 41.5287C52.4122 41.5287 51.4 42.5452 51.4 43.7963H52.1C52.1 42.9304 52.8002 42.2287 53.6648 42.2287V41.5287ZM51.4 43.7963C51.4 44.6593 50.6957 45.3625 49.8297 45.3625V46.0625C51.0807 46.0625 52.1 45.0475 52.1 43.7963H51.4ZM49.8297 45.3625C48.9675 45.3625 48.2649 44.6603 48.2649 43.7963H47.5649C47.5649 45.0466 48.5805 46.0625 49.8297 46.0625V45.3625ZM48.2649 43.7963C48.2649 42.5448 47.2509 41.5287 45.9987 41.5287V42.2287C46.8636 42.2287 47.5649 42.9307 47.5649 43.7963H48.2649ZM45.9987 41.5287C44.7471 41.5287 43.7313 42.5445 43.7313 43.7963H44.4313C44.4313 42.9311 45.1337 42.2287 45.9987 42.2287V41.5287ZM43.7313 43.7963C43.7313 44.6601 43.0289 45.3625 42.1651 45.3625V46.0625C43.4155 46.0625 44.4313 45.0467 44.4313 43.7963H43.7313ZM42.1651 45.3625C41.3013 45.3625 40.5989 44.6601 40.5989 43.7963H39.8989C39.8989 45.0467 40.9147 46.0625 42.1651 46.0625V45.3625ZM40.5989 43.7963C40.5989 42.5445 39.5832 41.5287 38.3315 41.5287V42.2287C39.1965 42.2287 39.8989 42.9311 39.8989 43.7963H40.5989ZM38.3315 41.5287C37.0795 41.5287 36.0653 42.5448 36.0653 43.7963H36.7653C36.7653 42.9308 37.4667 42.2287 38.3315 42.2287V41.5287ZM36.0653 43.7963C36.0653 44.6601 35.3629 45.3625 34.4991 45.3625V46.0625C35.7495 46.0625 36.7653 45.0467 36.7653 43.7963H36.0653ZM34.4991 45.3625C33.6355 45.3625 32.9329 44.6601 32.9329 43.7963H32.2329C32.2329 45.0467 33.2489 46.0625 34.4991 46.0625V45.3625ZM32.9329 43.7963C32.9329 42.5445 31.9172 41.5287 30.6655 41.5287V42.2287C31.5305 42.2287 32.2329 42.9311 32.2329 43.7963H32.9329ZM30.6655 41.5287C29.4133 41.5287 28.3993 42.5448 28.3993 43.7963H29.0993C29.0993 42.9307 29.8006 42.2287 30.6655 42.2287V41.5287ZM28.3993 43.7963C28.3993 44.66 27.6956 45.3625 26.8331 45.3625V46.0625C28.0819 46.0625 29.0993 45.0469 29.0993 43.7963H28.3993ZM26.8331 45.3625C25.969 45.3625 25.2656 44.6598 25.2656 43.7963H24.5656C24.5656 45.047 25.583 46.0625 26.8331 46.0625V45.3625ZM25.2656 43.7963C25.2656 42.5448 24.2516 41.5287 22.9995 41.5287V42.2287C23.8644 42.2287 24.5656 42.9307 24.5656 43.7963H25.2656ZM22.9995 41.5287C21.7475 41.5287 20.7333 42.5448 20.7333 43.7963H21.4333C21.4333 42.9308 22.1347 42.2287 22.9995 42.2287V41.5287ZM20.7333 43.7963C20.7333 44.6598 20.0298 45.3625 19.1658 45.3625V46.0625C20.4157 46.0625 21.4333 45.047 21.4333 43.7963H20.7333ZM19.1658 45.3625C18.3033 45.3625 17.5996 44.66 17.5996 43.7963H16.8996C16.8996 45.0469 17.917 46.0625 19.1658 46.0625V45.3625ZM17.5996 43.7963C17.5996 42.5448 16.5856 41.5287 15.3335 41.5287V42.2287C16.1983 42.2287 16.8996 42.9307 16.8996 43.7963H17.5996ZM15.3335 41.5287C14.0815 41.5287 13.0673 42.5448 13.0673 43.7963H13.7673C13.7673 42.9308 14.4687 42.2287 15.3335 42.2287V41.5287ZM13.0673 43.7963C13.0673 44.6598 12.3638 45.3625 11.4996 45.3625V46.0625C12.7497 46.0625 13.7673 45.0471 13.7673 43.7963H13.0673ZM11.4996 45.3625C10.636 45.3625 9.93345 44.6601 9.93345 43.7963H9.23345C9.23345 45.0467 10.2494 46.0625 11.4996 46.0625V45.3625ZM9.93345 43.7963C9.93345 42.5448 8.91944 41.5287 7.66726 41.5287V42.2287C8.53216 42.2287 9.23345 42.9307 9.23345 43.7963H9.93345ZM7.66726 41.5287C6.41542 41.5287 5.39964 42.5445 5.39964 43.7963H6.09964C6.09964 42.9311 6.80202 42.2287 7.66726 42.2287V41.5287ZM5.39964 43.7963C5.39964 44.6601 4.69725 45.3625 3.83345 45.3625V46.0625C5.08385 46.0625 6.09964 45.0467 6.09964 43.7963H5.39964ZM4.18345 45.7125V41.8787H3.48345V45.7125H4.18345ZM3.83345 42.2287H7.66708V41.5287H3.83345V42.2287ZM7.66708 42.2287H15.3331V41.5287H7.66708V42.2287ZM15.3331 42.2287H22.9991V41.5287H15.3331V42.2287ZM22.9991 42.2287H30.6651V41.5287H22.9991V42.2287ZM30.6651 42.2287H38.3311V41.5287H30.6651V42.2287ZM38.3311 42.2287H45.9984V41.5287H38.3311V42.2287ZM45.9984 42.2287H53.6644V41.5287H45.9984V42.2287ZM53.6644 42.2287H61.329V41.5287H53.6644V42.2287ZM61.329 42.2287H68.9962V41.5287H61.329V42.2287ZM68.9962 42.2287H76.6637V41.5287H68.9962V42.2287ZM76.6637 42.2287H84.3286V41.5287H76.6637V42.2287ZM84.3286 42.2287H88.1637V41.5287H84.3286V42.2287ZM87.8137 41.8787V45.7125H88.5137V41.8787H87.8137ZM88.1637 45.3625C87.2983 45.3625 86.5961 44.66 86.5961 43.7963H85.896C85.896 45.0469 86.912 46.0625 88.1637 46.0625V45.3625ZM86.5961 43.7963C86.5961 42.5449 85.5835 41.5287 84.3286 41.5287V42.2287C85.1962 42.2287 85.896 42.9307 85.896 43.7963H86.5961ZM9.58345 23.0631H82.4137V22.3631H9.58345V23.0631ZM82.0637 22.7131V26.5467H82.7637V22.7131H82.0637ZM82.4137 26.1967H9.58345V26.8967H82.4137V26.1967ZM9.93345 26.5467V22.7131H9.23345V26.5467H9.93345ZM8.85069 30.7305H83.1437V30.0305H8.85069V30.7305ZM82.8307 30.5371L86.6658 38.2031L87.2918 37.8899L83.4568 30.2239L82.8307 30.5371ZM86.9788 37.6965H5.01849V38.3965H86.9788V37.6965ZM5.33155 38.203L9.16375 30.537L8.53762 30.224L4.70543 37.89L5.33155 38.203ZM40.5987 84.0451V70.6278H39.8987V84.0451H40.5987ZM40.5987 70.6278V57.2134H39.8987V70.6278H40.5987ZM40.2487 57.5634H51.7498V56.8634H40.2487V57.5634ZM51.3998 57.2134V84.0451H52.0998V57.2134H51.3998ZM51.7498 83.6951H40.2487V84.3951H51.7498V83.6951ZM55.9293 84.0451V55.2956H55.2293V84.0451H55.9293ZM55.9293 55.2956C55.9293 54.0446 54.9169 53.0282 53.6648 53.0282V53.7282C54.529 53.7282 55.2293 54.4299 55.2293 55.2956H55.9293ZM53.6648 53.0282H38.3315V53.7282H53.6648V53.0282ZM38.3315 53.0282C37.0793 53.0282 36.0653 54.0443 36.0653 55.2956H36.7653C36.7653 54.4302 37.4666 53.7282 38.3315 53.7282V53.0282ZM36.0653 55.2956V84.0449H36.7653V55.2956H36.0653ZM36.4153 83.6949H5.74982V84.3949H36.4153V83.6949ZM6.09982 84.0449V49.2175H5.39982V84.0449H6.09982ZM5.86766 49.5471C6.62496 49.2763 7.31419 48.864 7.90101 48.3382L7.43388 47.8169C6.91454 48.2822 6.30391 48.6477 5.63198 48.8879L5.86766 49.5471ZM7.4338 48.3382C8.51298 49.3057 9.93864 49.896 11.4996 49.896V49.196C10.1184 49.196 8.8574 48.6743 7.90108 47.817L7.4338 48.3382ZM11.4996 49.896C13.0607 49.896 14.4878 49.3058 15.5669 48.3381L15.0996 47.817C14.1436 48.6743 12.8811 49.196 11.4996 49.196V49.896ZM15.0996 48.3382C16.1788 49.3057 17.6045 49.896 19.1656 49.896V49.196C17.7843 49.196 16.5232 48.6743 15.5669 47.817L15.0996 48.3382ZM19.1656 49.896C20.728 49.896 22.1537 49.3057 23.2329 48.3382L22.7656 47.817C21.8094 48.6743 20.5483 49.196 19.1656 49.196V49.896ZM22.7656 48.3382C23.8449 49.3058 25.272 49.896 26.8329 49.896V49.196C25.4516 49.196 24.1892 48.6743 23.2329 47.817L22.7656 48.3382ZM26.8329 49.896C28.3941 49.896 29.8197 49.3057 30.8989 48.3382L30.4317 47.817C29.4753 48.6743 28.2143 49.196 26.8329 49.196V49.896ZM30.4317 48.3382C31.5109 49.3058 32.938 49.896 34.4989 49.896V49.196C33.1176 49.196 31.8552 48.6743 30.8989 47.817L30.4317 48.3382ZM34.4989 49.896C36.0601 49.896 37.4858 49.3057 38.5649 48.3382L38.0977 47.817C37.1413 48.6743 35.8803 49.196 34.4989 49.196V49.896ZM38.0978 48.3383C39.1783 49.3057 40.6039 49.896 42.1649 49.896V49.196C40.7838 49.196 39.5226 48.6744 38.5648 47.8168L38.0978 48.3383ZM42.1649 49.896C43.7258 49.896 45.153 49.3058 46.2322 48.3382L45.7649 47.817C44.8087 48.6743 43.5462 49.196 42.1649 49.196V49.896ZM45.7649 48.3382C46.8441 49.3057 48.2699 49.896 49.8295 49.896V49.196C48.4498 49.196 47.1886 48.6744 46.2322 47.817L45.7649 48.3382ZM49.8295 49.896C51.3904 49.896 52.8203 49.3059 53.8984 48.338L53.4308 47.8171C52.4762 48.6741 51.2112 49.196 49.8295 49.196V49.896ZM53.4307 48.338C54.5085 49.3058 55.9359 49.896 57.4968 49.896V49.196C56.1154 49.196 54.8529 48.6742 53.8984 47.8171L53.4307 48.338ZM57.4968 49.896C59.0576 49.896 60.485 49.3058 61.563 48.338L61.0953 47.8171C60.1406 48.6742 58.8781 49.196 57.4968 49.196V49.896ZM61.0957 48.3383C62.1763 49.3057 63.6031 49.896 65.1642 49.896V49.196C63.7828 49.196 62.5204 48.6743 61.5626 47.8168L61.0957 48.3383ZM65.1642 49.896C66.7253 49.896 68.1494 49.3056 69.2299 48.3383L68.763 47.8168C67.805 48.6744 66.5453 49.196 65.1642 49.196V49.896ZM68.763 48.3383C69.8434 49.3056 71.2677 49.896 72.8288 49.896V49.196C71.4477 49.196 70.1878 48.6744 69.2299 47.8168L68.763 48.3383ZM72.8288 49.896C74.3897 49.896 75.8167 49.3057 76.8973 48.3383L76.4304 47.8168C75.4726 48.6743 74.21 49.196 72.8288 49.196V49.896ZM76.43 48.338C77.5078 49.3058 78.9352 49.896 80.496 49.896V49.196C79.1147 49.196 77.8522 48.6742 76.8977 47.8171L76.43 48.338ZM80.496 49.896C82.0569 49.896 83.4843 49.3058 84.5622 48.338L84.0946 47.8171C83.1399 48.6742 81.8774 49.196 80.496 49.196V49.896ZM84.0955 48.3388C84.6843 48.8637 85.369 49.2761 86.1282 49.5471L86.3635 48.8879C85.6913 48.6479 85.0844 48.2826 84.5613 47.8163L84.0955 48.3388ZM85.8959 49.2175V84.0449H86.5959V49.2175H85.8959ZM86.2459 83.6949H55.5793V84.3949H86.2459V83.6949ZM55.2293 84.0449V84.0451H55.9293V84.0449H55.2293Z" fill="white" mask="url(#path-5-inside-1)"/>
</g>
<defs>
<linearGradient id="paint0_linear" x1="21.0831" y1="53.3784" x2="21.0831" y2="76.3777" gradientUnits="userSpaceOnUse">
<stop stop-color="#B0988C"/>
<stop offset="1" stop-color="#EDAF2D"/>
</linearGradient>
<linearGradient id="paint1_linear" x1="70.9126" y1="53.3784" x2="70.9126" y2="76.3777" gradientUnits="userSpaceOnUse">
<stop stop-color="#B0988C"/>
<stop offset="1" stop-color="#EDAF2D"/>
</linearGradient>
<linearGradient id="paint2_linear" x1="42.1649" y1="68.7129" x2="42.1649" y2="72.5453" gradientUnits="userSpaceOnUse">
<stop stop-color="#B0988C"/>
<stop offset="1" stop-color="#EDAF2D"/>
</linearGradient>
<linearGradient id="paint3_linear" x1="48.728" y1="4.12305" x2="48.728" y2="18.8811" gradientUnits="userSpaceOnUse">
<stop stop-color="#B0988C"/>
<stop offset="1" stop-color="#EDAF2D"/>
</linearGradient>
<linearGradient id="paint4_linear" x1="46" y1="18.8809" x2="46" y2="87.8771" gradientUnits="userSpaceOnUse">
<stop stop-color="#B0988C"/>
<stop offset="1" stop-color="#EDAF2D"/>
</linearGradient>
</defs>
</svg>
